%!PS-Adobe-3.0 EPSF-3.0 
%%BoundingBox: 0 0 1072 750
%%Pages: 0
%%Creator: Sun Microsystems, Inc.
%%Title: none
%%CreationDate: none
%%LanguageLevel: 2
%%EndComments
%%BeginProlog
%%BeginResource: procset SDRes-Prolog 1.0 0
/b4_inc_state save def
/dict_count countdictstack def
/op_count count 1 sub def
userdict begin
0 setgray 0 setlinecap 1 setlinewidth 0 setlinejoin 10 setmiterlimit[] 0 setdash newpath
/languagelevel where {pop languagelevel 1 ne {false setstrokeadjust false setoverprint} if} if
/bdef {bind def} bind def
/c {setrgbcolor} bdef
/l {neg lineto} bdef
/rl {neg rlineto} bdef
/lc {setlinecap} bdef
/lj {setlinejoin} bdef
/lw {setlinewidth} bdef
/ml {setmiterlimit} bdef
/ld {setdash} bdef
/m {neg moveto} bdef
/ct {6 2 roll neg 6 2 roll neg 6 2 roll neg curveto} bdef
/r {rotate} bdef
/t {neg translate} bdef
/s {scale} bdef
/sw {show} bdef
/gs {gsave} bdef
/gr {grestore} bdef
/f {findfont dup length dict begin
{1 index /FID ne {def} {pop pop} ifelse} forall /Encoding ISOLatin1Encoding def
currentdict end /NFont exch definefont pop /NFont findfont} bdef
/p {closepath} bdef
/sf {scalefont setfont} bdef
/ef {eofill}bdef
/pc {closepath stroke}bdef
/ps {stroke}bdef
/pum {matrix currentmatrix}bdef
/pom {setmatrix}bdef
/bs {/aString exch def /nXOfs exch def /nWidth exch def currentpoint nXOfs 0 rmoveto pum nWidth aString stringwidth pop div 1 scale aString show pom moveto} bdef
%%EndResource
%%EndProlog
%%BeginSetup
%%EndSetup
%%Page: 1 1
%%BeginPageSetup
%%EndPageSetup
pum
0.02835 0.02834 s 
0 -26461 t
/tm matrix currentmatrix def
tm setmatrix
-1537 -1536 t 
1 1 s 
0.503 0.503 0.503 c 20588 27995 m  1838 27995 l  1838 1837 l  39338 1837 l 
39338 27995 l  20588 27995 l  p ef
20588 27995 m  1838 27995 l  1838 1837 l  39338 1837 l  39338 27995 l 
20588 27995 l  pc
1.000 1.000 1.000 c 20288 27695 m  1538 27695 l  1538 1537 l  39038 1537 l 
39038 27695 l  20288 27695 l  p ef
0.003 0.003 0.003 c 20288 27695 m  1538 27695 l  1538 1537 l  39038 1537 l 
39038 27695 l  20288 27695 l  pc
0.503 0.503 0.503 c 10837 5928 m  12881 5928 14443 6658 14443 7614 ct 14443 8570 12881 9300 10837 9300 ct 
8793 9300 7232 8570 7232 7614 ct 7232 6658 8793 5928 10837 5928 ct p
7232 5928 m  7232 5928 l  p
14444 9301 m  14444 9301 l  p ef
10837 5928 m  12881 5928 14443 6658 14443 7614 ct 14443 8570 12881 9300 10837 9300 ct 
8793 9300 7232 8570 7232 7614 ct 7232 6658 8793 5928 10837 5928 ct pc
7232 5928 m  7232 5928 l  pc
14444 9301 m  14444 9301 l  pc
pum
8702 7432 t
211 -462 m  211 -137 l  211 -100 208 -79 197 -63 ct 185 -45 164 -34 140 -34 ct 
96 -34 71 -64 71 -118 ct 71 -148 l  11 -148 l  11 -107 l  11 -33 60 15 140 15 ct 
220 15 271 -35 271 -115 ct 271 -462 l  211 -462 l  p ef
658 -31 m  652 -29 649 -29 646 -29 ct 628 -29 618 -39 618 -55 ct 618 -251 l 
618 -310 575 -342 493 -342 ct 444 -342 404 -328 382 -303 ct 367 -286 361 -267 359 -234 ct 
413 -234 l  417 -275 441 -293 491 -293 ct 538 -293 565 -275 565 -243 ct 565 -229 l 
565 -207 552 -198 510 -193 ct 435 -183 423 -181 403 -172 ct 364 -156 345 -127 345 -83 ct 
345 -23 387 15 454 15 ct 496 15 529 0 567 -34 ct 571 0 587 15 622 15 ct 632 15 641 14 658 9 ct 
658 -31 l  p
565 -104 m  565 -87 560 -76 544 -61 ct 522 -41 496 -31 465 -31 ct 424 -31 400 -51 400 -85 ct 
400 -120 423 -137 480 -146 ct 536 -153 547 -156 565 -164 ct 565 -104 l  p ef
841 0 m  969 -333 l  909 -333 l  815 -63 l  726 -333 l  666 -333 l  783 0 l 
841 0 l  p ef
1309 -31 m  1303 -29 1300 -29 1297 -29 ct 1279 -29 1269 -39 1269 -55 ct 1269 -251 l 
1269 -310 1226 -342 1144 -342 ct 1095 -342 1055 -328 1033 -303 ct 1018 -286 1012 -267 1010 -234 ct 
1064 -234 l  1068 -275 1092 -293 1142 -293 ct 1189 -293 1216 -275 1216 -243 ct 
1216 -229 l  1216 -207 1203 -198 1161 -193 ct 1086 -183 1074 -181 1054 -172 ct 
1015 -156 996 -127 996 -83 ct 996 -23 1038 15 1105 15 ct 1147 15 1180 0 1218 -34 ct 
1222 0 1238 15 1273 15 ct 1283 15 1292 14 1309 9 ct 1309 -31 l  p
1216 -104 m  1216 -87 1211 -76 1195 -61 ct 1173 -41 1147 -31 1116 -31 ct 1075 -31 1051 -51 1051 -85 ct 
1051 -120 1074 -137 1131 -146 ct 1187 -153 1198 -156 1216 -164 ct 1216 -104 l 
p ef
1741 -319 m  1723 -420 1665 -470 1563 -470 ct 1501 -470 1451 -450 1416 -412 ct 
1374 -367 1351 -301 1351 -226 ct 1351 -149 1375 -84 1419 -39 ct 1454 -2 1500 15 1560 15 ct 
1673 15 1737 -46 1751 -168 ct 1690 -168 l  1685 -137 1679 -115 1669 -97 ct 1650 -59 1611 -37 1561 -37 ct 
1469 -37 1411 -111 1411 -226 ct 1411 -345 1466 -418 1556 -418 ct 1593 -418 1628 -407 1647 -389 ct 
1665 -373 1674 -353 1681 -319 ct 1741 -319 l  p ef
2198 -319 m  2180 -420 2122 -470 2020 -470 ct 1958 -470 1908 -450 1873 -412 ct 
1831 -367 1808 -301 1808 -226 ct 1808 -149 1832 -84 1876 -39 ct 1911 -2 1957 15 2017 15 ct 
2130 15 2194 -46 2208 -168 ct 2147 -168 l  2142 -137 2136 -115 2126 -97 ct 2107 -59 2068 -37 2018 -37 ct 
1926 -37 1868 -111 1868 -226 ct 1868 -345 1923 -418 2013 -418 ct 2050 -418 2085 -407 2104 -389 ct 
2122 -373 2131 -353 2138 -319 ct 2198 -319 l  p ef
2530 -196 m  2675 -196 l  2711 -196 2740 -207 2765 -229 ct 2793 -254 2805 -284 2805 -326 ct 
2805 -413 2753 -462 2662 -462 ct 2471 -462 l  2471 0 l  2530 0 l  2530 -196 l 
p
2530 -248 m  2530 -410 l  2653 -410 l  2710 -410 2743 -380 2743 -329 ct 2743 -278 2710 -248 2653 -248 ct 
2530 -248 l  p ef
3164 -31 m  3158 -29 3155 -29 3152 -29 ct 3134 -29 3124 -39 3124 -55 ct 3124 -251 l 
3124 -310 3081 -342 2999 -342 ct 2950 -342 2910 -328 2888 -303 ct 2873 -286 2867 -267 2865 -234 ct 
2919 -234 l  2923 -275 2947 -293 2997 -293 ct 3044 -293 3071 -275 3071 -243 ct 
3071 -229 l  3071 -207 3058 -198 3016 -193 ct 2941 -183 2929 -181 2909 -172 ct 
2870 -156 2851 -127 2851 -83 ct 2851 -23 2893 15 2960 15 ct 3002 15 3035 0 3073 -34 ct 
3077 0 3093 15 3128 15 ct 3138 15 3147 14 3164 9 ct 3164 -31 l  p
3071 -104 m  3071 -87 3066 -76 3050 -61 ct 3028 -41 3002 -31 2971 -31 ct 2930 -31 2906 -51 2906 -85 ct 
2906 -120 2929 -137 2986 -146 ct 3042 -153 3053 -156 3071 -164 ct 3071 -104 l 
p ef
3219 -332 m  3219 0 l  3272 0 l  3272 -173 l  3272 -220 3284 -251 3310 -270 ct 
3326 -282 3342 -286 3379 -286 ct 3379 -340 l  3370 -341 3366 -342 3359 -342 ct 
3324 -342 3298 -322 3268 -272 ct 3268 -332 l  3219 -332 l  p ef
3669 -240 m  3669 -305 3625 -342 3548 -342 ct 3471 -342 3421 -302 3421 -240 ct 
3421 -188 3448 -163 3526 -144 ct 3576 -132 l  3613 -123 3627 -110 3627 -86 ct 
3627 -55 3596 -34 3550 -34 ct 3521 -34 3497 -42 3484 -56 ct 3475 -66 3472 -75 3468 -99 ct 
3413 -99 l  3415 -22 3458 15 3545 15 ct 3629 15 3682 -26 3682 -90 ct 3682 -140 3655 -167 3588 -183 ct 
3538 -195 l  3495 -205 3476 -219 3476 -243 ct 3476 -273 3503 -293 3547 -293 ct 
3589 -293 3612 -275 3613 -240 ct 3669 -240 l  p ef
4034 -148 m  4034 -199 4030 -229 4020 -254 ct 3999 -309 3948 -342 3886 -342 ct 
3793 -342 3733 -271 3733 -162 ct 3733 -52 3791 15 3885 15 ct 3961 15 4013 -28 4027 -100 ct 
3973 -100 l  3959 -57 3929 -34 3886 -34 ct 3853 -34 3824 -49 3806 -77 ct 3794 -96 3789 -115 3789 -148 ct 
4034 -148 l  p
3790 -191 m  3794 -253 3832 -293 3885 -293 ct 3937 -293 3977 -250 3977 -195 ct 
3977 -194 3977 -192 3977 -191 ct 3790 -191 l  p ef
4104 -332 m  4104 0 l  4157 0 l  4157 -173 l  4157 -220 4169 -251 4195 -270 ct 
4211 -282 4227 -286 4264 -286 ct 4264 -340 l  4255 -341 4251 -342 4244 -342 ct 
4209 -342 4183 -322 4153 -272 ct 4153 -332 l  4104 -332 l  p ef
pom
pum
9413 8219 t
450 -244 m  257 -244 l  257 -192 l  398 -192 l  398 -179 l  398 -97 337 -37 253 -37 ct 
206 -37 163 -54 136 -84 ct 105 -117 87 -172 87 -229 ct 87 -343 152 -418 250 -418 ct 
320 -418 371 -382 384 -322 ct 444 -322 l  427 -416 356 -470 250 -470 ct 194 -470 148 -455 112 -426 ct 
58 -381 28 -309 28 -226 ct 28 -84 115 15 240 15 ct 303 15 353 -8 398 -59 ct 413 3 l 
450 3 l  450 -244 l  p ef
821 -148 m  821 -199 817 -229 807 -254 ct 786 -309 735 -342 673 -342 ct 580 -342 520 -271 520 -162 ct 
520 -52 578 15 672 15 ct 748 15 800 -28 814 -100 ct 760 -100 l  746 -57 716 -34 673 -34 ct 
640 -34 611 -49 593 -77 ct 581 -96 576 -115 576 -148 ct 821 -148 l  p
577 -191 m  581 -253 619 -293 672 -293 ct 724 -293 764 -250 764 -195 ct 764 -194 764 -192 764 -191 ct 
577 -191 l  p ef
891 -332 m  891 0 l  945 0 l  945 -183 l  945 -251 980 -296 1035 -296 ct 
1077 -296 1104 -270 1104 -230 ct 1104 0 l  1156 0 l  1156 -251 l  1156 -306 1115 -342 1051 -342 ct 
1001 -342 970 -323 940 -277 ct 940 -332 l  891 -332 l  p ef
1524 -148 m  1524 -199 1520 -229 1510 -254 ct 1489 -309 1438 -342 1376 -342 ct 
1283 -342 1223 -271 1223 -162 ct 1223 -52 1281 15 1375 15 ct 1451 15 1503 -28 1517 -100 ct 
1463 -100 l  1449 -57 1419 -34 1376 -34 ct 1343 -34 1314 -49 1296 -77 ct 1284 -96 1279 -115 1279 -148 ct 
1524 -148 l  p
1280 -191 m  1284 -253 1322 -293 1375 -293 ct 1427 -293 1467 -250 1467 -195 ct 
1467 -194 1467 -192 1467 -191 ct 1280 -191 l  p ef
1593 -332 m  1593 0 l  1646 0 l  1646 -173 l  1646 -220 1658 -251 1684 -270 ct 
1700 -282 1716 -286 1753 -286 ct 1753 -340 l  1744 -341 1740 -342 1733 -342 ct 
1698 -342 1672 -322 1642 -272 ct 1642 -332 l  1593 -332 l  p ef
2101 -31 m  2095 -29 2092 -29 2089 -29 ct 2071 -29 2061 -39 2061 -55 ct 2061 -251 l 
2061 -310 2018 -342 1936 -342 ct 1887 -342 1847 -328 1825 -303 ct 1810 -286 1804 -267 1802 -234 ct 
1856 -234 l  1860 -275 1884 -293 1934 -293 ct 1981 -293 2008 -275 2008 -243 ct 
2008 -229 l  2008 -207 1995 -198 1953 -193 ct 1878 -183 1866 -181 1846 -172 ct 
1807 -156 1788 -127 1788 -83 ct 1788 -23 1830 15 1897 15 ct 1939 15 1972 0 2010 -34 ct 
2014 0 2030 15 2065 15 ct 2075 15 2084 14 2101 9 ct 2101 -31 l  p
2008 -104 m  2008 -87 2003 -76 1987 -61 ct 1965 -41 1939 -31 1908 -31 ct 1867 -31 1843 -51 1843 -85 ct 
1843 -120 1866 -137 1923 -146 ct 1979 -153 1990 -156 2008 -164 ct 2008 -104 l 
p ef
2273 -332 m  2219 -332 l  2219 -424 l  2166 -424 l  2166 -332 l  2121 -332 l 
2121 -289 l  2166 -289 l  2166 -38 l  2166 -4 2189 15 2230 15 ct 2243 15 2256 14 2273 11 ct 
2273 -34 l  2266 -32 2258 -31 2248 -31 ct 2225 -31 2219 -38 2219 -61 ct 2219 -289 l 
2273 -289 l  2273 -332 l  p ef
2459 -342 m  2365 -342 2309 -275 2309 -163 ct 2309 -52 2365 15 2459 15 ct 2553 15 2610 -52 2610 -161 ct 
2610 -276 2555 -342 2459 -342 ct p
2459 -293 m  2519 -293 2555 -244 2555 -162 ct 2555 -83 2518 -34 2459 -34 ct 
2400 -34 2364 -83 2364 -163 ct 2364 -243 2400 -293 2459 -293 ct p ef
2681 -332 m  2681 0 l  2734 0 l  2734 -173 l  2734 -220 2746 -251 2772 -270 ct 
2788 -282 2804 -286 2841 -286 ct 2841 -340 l  2832 -341 2828 -342 2821 -342 ct 
2786 -342 2760 -322 2730 -272 ct 2730 -332 l  2681 -332 l  p ef
pom
0.863 0.140 0.003 c 10537 5628 m  12581 5628 14143 6358 14143 7314 ct 14143 8270 12581 9000 10537 9000 ct 
8493 9000 6932 8270 6932 7314 ct 6932 6358 8493 5628 10537 5628 ct p
6932 5628 m  6932 5628 l  p
14144 9001 m  14144 9001 l  p ef
0.003 0.003 0.003 c 10537 5628 m  12581 5628 14143 6358 14143 7314 ct 14143 8270 12581 9000 10537 9000 ct 
8493 9000 6932 8270 6932 7314 ct 6932 6358 8493 5628 10537 5628 ct pc
6932 5628 m  6932 5628 l  pc
14144 9001 m  14144 9001 l  pc
pum
8402 7132 t
1.000 1.000 1.000 c 211 -462 m  211 -137 l  211 -100 208 -79 197 -63 ct 185 -45 164 -34 140 -34 ct 
96 -34 71 -64 71 -118 ct 71 -148 l  11 -148 l  11 -107 l  11 -33 60 15 140 15 ct 
220 15 271 -35 271 -115 ct 271 -462 l  211 -462 l  p ef
658 -31 m  652 -29 649 -29 646 -29 ct 628 -29 618 -39 618 -55 ct 618 -251 l 
618 -310 575 -342 493 -342 ct 444 -342 404 -328 382 -303 ct 367 -286 361 -267 359 -234 ct 
413 -234 l  417 -275 441 -293 491 -293 ct 538 -293 565 -275 565 -243 ct 565 -229 l 
565 -207 552 -198 510 -193 ct 435 -183 423 -181 403 -172 ct 364 -156 345 -127 345 -83 ct 
345 -23 387 15 454 15 ct 496 15 529 0 567 -34 ct 571 0 587 15 622 15 ct 632 15 641 14 658 9 ct 
658 -31 l  p
565 -104 m  565 -87 560 -76 544 -61 ct 522 -41 496 -31 465 -31 ct 424 -31 400 -51 400 -85 ct 
400 -120 423 -137 480 -146 ct 536 -153 547 -156 565 -164 ct 565 -104 l  p ef
841 0 m  969 -333 l  909 -333 l  815 -63 l  726 -333 l  666 -333 l  783 0 l 
841 0 l  p ef
1309 -31 m  1303 -29 1300 -29 1297 -29 ct 1279 -29 1269 -39 1269 -55 ct 1269 -251 l 
1269 -310 1226 -342 1144 -342 ct 1095 -342 1055 -328 1033 -303 ct 1018 -286 1012 -267 1010 -234 ct 
1064 -234 l  1068 -275 1092 -293 1142 -293 ct 1189 -293 1216 -275 1216 -243 ct 
1216 -229 l  1216 -207 1203 -198 1161 -193 ct 1086 -183 1074 -181 1054 -172 ct 
1015 -156 996 -127 996 -83 ct 996 -23 1038 15 1105 15 ct 1147 15 1180 0 1218 -34 ct 
1222 0 1238 15 1273 15 ct 1283 15 1292 14 1309 9 ct 1309 -31 l  p
1216 -104 m  1216 -87 1211 -76 1195 -61 ct 1173 -41 1147 -31 1116 -31 ct 1075 -31 1051 -51 1051 -85 ct 
1051 -120 1074 -137 1131 -146 ct 1187 -153 1198 -156 1216 -164 ct 1216 -104 l 
p ef
1741 -319 m  1723 -420 1665 -470 1563 -470 ct 1501 -470 1451 -450 1416 -412 ct 
1374 -367 1351 -301 1351 -226 ct 1351 -149 1375 -84 1419 -39 ct 1454 -2 1500 15 1560 15 ct 
1673 15 1737 -46 1751 -168 ct 1690 -168 l  1685 -137 1679 -115 1669 -97 ct 1650 -59 1611 -37 1561 -37 ct 
1469 -37 1411 -111 1411 -226 ct 1411 -345 1466 -418 1556 -418 ct 1593 -418 1628 -407 1647 -389 ct 
1665 -373 1674 -353 1681 -319 ct 1741 -319 l  p ef
2198 -319 m  2180 -420 2122 -470 2020 -470 ct 1958 -470 1908 -450 1873 -412 ct 
1831 -367 1808 -301 1808 -226 ct 1808 -149 1832 -84 1876 -39 ct 1911 -2 1957 15 2017 15 ct 
2130 15 2194 -46 2208 -168 ct 2147 -168 l  2142 -137 2136 -115 2126 -97 ct 2107 -59 2068 -37 2018 -37 ct 
1926 -37 1868 -111 1868 -226 ct 1868 -345 1923 -418 2013 -418 ct 2050 -418 2085 -407 2104 -389 ct 
2122 -373 2131 -353 2138 -319 ct 2198 -319 l  p ef
2530 -196 m  2675 -196 l  2711 -196 2740 -207 2765 -229 ct 2793 -254 2805 -284 2805 -326 ct 
2805 -413 2753 -462 2662 -462 ct 2471 -462 l  2471 0 l  2530 0 l  2530 -196 l 
p
2530 -248 m  2530 -410 l  2653 -410 l  2710 -410 2743 -380 2743 -329 ct 2743 -278 2710 -248 2653 -248 ct 
2530 -248 l  p ef
3164 -31 m  3158 -29 3155 -29 3152 -29 ct 3134 -29 3124 -39 3124 -55 ct 3124 -251 l 
3124 -310 3081 -342 2999 -342 ct 2950 -342 2910 -328 2888 -303 ct 2873 -286 2867 -267 2865 -234 ct 
2919 -234 l  2923 -275 2947 -293 2997 -293 ct 3044 -293 3071 -275 3071 -243 ct 
3071 -229 l  3071 -207 3058 -198 3016 -193 ct 2941 -183 2929 -181 2909 -172 ct 
2870 -156 2851 -127 2851 -83 ct 2851 -23 2893 15 2960 15 ct 3002 15 3035 0 3073 -34 ct 
3077 0 3093 15 3128 15 ct 3138 15 3147 14 3164 9 ct 3164 -31 l  p
3071 -104 m  3071 -87 3066 -76 3050 -61 ct 3028 -41 3002 -31 2971 -31 ct 2930 -31 2906 -51 2906 -85 ct 
2906 -120 2929 -137 2986 -146 ct 3042 -153 3053 -156 3071 -164 ct 3071 -104 l 
p ef
3219 -332 m  3219 0 l  3272 0 l  3272 -173 l  3272 -220 3284 -251 3310 -270 ct 
3326 -282 3342 -286 3379 -286 ct 3379 -340 l  3370 -341 3366 -342 3359 -342 ct 
3324 -342 3298 -322 3268 -272 ct 3268 -332 l  3219 -332 l  p ef
3669 -240 m  3669 -305 3625 -342 3548 -342 ct 3471 -342 3421 -302 3421 -240 ct 
3421 -188 3448 -163 3526 -144 ct 3576 -132 l  3613 -123 3627 -110 3627 -86 ct 
3627 -55 3596 -34 3550 -34 ct 3521 -34 3497 -42 3484 -56 ct 3475 -66 3472 -75 3468 -99 ct 
3413 -99 l  3415 -22 3458 15 3545 15 ct 3629 15 3682 -26 3682 -90 ct 3682 -140 3655 -167 3588 -183 ct 
3538 -195 l  3495 -205 3476 -219 3476 -243 ct 3476 -273 3503 -293 3547 -293 ct 
3589 -293 3612 -275 3613 -240 ct 3669 -240 l  p ef
4034 -148 m  4034 -199 4030 -229 4020 -254 ct 3999 -309 3948 -342 3886 -342 ct 
3793 -342 3733 -271 3733 -162 ct 3733 -52 3791 15 3885 15 ct 3961 15 4013 -28 4027 -100 ct 
3973 -100 l  3959 -57 3929 -34 3886 -34 ct 3853 -34 3824 -49 3806 -77 ct 3794 -96 3789 -115 3789 -148 ct 
4034 -148 l  p
3790 -191 m  3794 -253 3832 -293 3885 -293 ct 3937 -293 3977 -250 3977 -195 ct 
3977 -194 3977 -192 3977 -191 ct 3790 -191 l  p ef
4104 -332 m  4104 0 l  4157 0 l  4157 -173 l  4157 -220 4169 -251 4195 -270 ct 
4211 -282 4227 -286 4264 -286 ct 4264 -340 l  4255 -341 4251 -342 4244 -342 ct 
4209 -342 4183 -322 4153 -272 ct 4153 -332 l  4104 -332 l  p ef
pom
pum
9113 7919 t
450 -244 m  257 -244 l  257 -192 l  398 -192 l  398 -179 l  398 -97 337 -37 253 -37 ct 
206 -37 163 -54 136 -84 ct 105 -117 87 -172 87 -229 ct 87 -343 152 -418 250 -418 ct 
320 -418 371 -382 384 -322 ct 444 -322 l  427 -416 356 -470 250 -470 ct 194 -470 148 -455 112 -426 ct 
58 -381 28 -309 28 -226 ct 28 -84 115 15 240 15 ct 303 15 353 -8 398 -59 ct 413 3 l 
450 3 l  450 -244 l  p ef
821 -148 m  821 -199 817 -229 807 -254 ct 786 -309 735 -342 673 -342 ct 580 -342 520 -271 520 -162 ct 
520 -52 578 15 672 15 ct 748 15 800 -28 814 -100 ct 760 -100 l  746 -57 716 -34 673 -34 ct 
640 -34 611 -49 593 -77 ct 581 -96 576 -115 576 -148 ct 821 -148 l  p
577 -191 m  581 -253 619 -293 672 -293 ct 724 -293 764 -250 764 -195 ct 764 -194 764 -192 764 -191 ct 
577 -191 l  p ef
891 -332 m  891 0 l  945 0 l  945 -183 l  945 -251 980 -296 1035 -296 ct 
1077 -296 1104 -270 1104 -230 ct 1104 0 l  1156 0 l  1156 -251 l  1156 -306 1115 -342 1051 -342 ct 
1001 -342 970 -323 940 -277 ct 940 -332 l  891 -332 l  p ef
1524 -148 m  1524 -199 1520 -229 1510 -254 ct 1489 -309 1438 -342 1376 -342 ct 
1283 -342 1223 -271 1223 -162 ct 1223 -52 1281 15 1375 15 ct 1451 15 1503 -28 1517 -100 ct 
1463 -100 l  1449 -57 1419 -34 1376 -34 ct 1343 -34 1314 -49 1296 -77 ct 1284 -96 1279 -115 1279 -148 ct 
1524 -148 l  p
1280 -191 m  1284 -253 1322 -293 1375 -293 ct 1427 -293 1467 -250 1467 -195 ct 
1467 -194 1467 -192 1467 -191 ct 1280 -191 l  p ef
1593 -332 m  1593 0 l  1646 0 l  1646 -173 l  1646 -220 1658 -251 1684 -270 ct 
1700 -282 1716 -286 1753 -286 ct 1753 -340 l  1744 -341 1740 -342 1733 -342 ct 
1698 -342 1672 -322 1642 -272 ct 1642 -332 l  1593 -332 l  p ef
2101 -31 m  2095 -29 2092 -29 2089 -29 ct 2071 -29 2061 -39 2061 -55 ct 2061 -251 l 
2061 -310 2018 -342 1936 -342 ct 1887 -342 1847 -328 1825 -303 ct 1810 -286 1804 -267 1802 -234 ct 
1856 -234 l  1860 -275 1884 -293 1934 -293 ct 1981 -293 2008 -275 2008 -243 ct 
2008 -229 l  2008 -207 1995 -198 1953 -193 ct 1878 -183 1866 -181 1846 -172 ct 
1807 -156 1788 -127 1788 -83 ct 1788 -23 1830 15 1897 15 ct 1939 15 1972 0 2010 -34 ct 
2014 0 2030 15 2065 15 ct 2075 15 2084 14 2101 9 ct 2101 -31 l  p
2008 -104 m  2008 -87 2003 -76 1987 -61 ct 1965 -41 1939 -31 1908 -31 ct 1867 -31 1843 -51 1843 -85 ct 
1843 -120 1866 -137 1923 -146 ct 1979 -153 1990 -156 2008 -164 ct 2008 -104 l 
p ef
2273 -332 m  2219 -332 l  2219 -424 l  2166 -424 l  2166 -332 l  2121 -332 l 
2121 -289 l  2166 -289 l  2166 -38 l  2166 -4 2189 15 2230 15 ct 2243 15 2256 14 2273 11 ct 
2273 -34 l  2266 -32 2258 -31 2248 -31 ct 2225 -31 2219 -38 2219 -61 ct 2219 -289 l 
2273 -289 l  2273 -332 l  p ef
2459 -342 m  2365 -342 2309 -275 2309 -163 ct 2309 -52 2365 15 2459 15 ct 2553 15 2610 -52 2610 -161 ct 
2610 -276 2555 -342 2459 -342 ct p
2459 -293 m  2519 -293 2555 -244 2555 -162 ct 2555 -83 2518 -34 2459 -34 ct 
2400 -34 2364 -83 2364 -163 ct 2364 -243 2400 -293 2459 -293 ct p ef
2681 -332 m  2681 0 l  2734 0 l  2734 -173 l  2734 -220 2746 -251 2772 -270 ct 
2788 -282 2804 -286 2841 -286 ct 2841 -340 l  2832 -341 2828 -342 2821 -342 ct 
2786 -342 2760 -322 2730 -272 ct 2730 -332 l  2681 -332 l  p ef
pom
1.000 1.000 0.601 c 5294 3000 m  5294 3000 l  6545 3000 7589 3149 7589 3328 ct 
7589 5300 l  7589 5479 6545 5629 5294 5629 ct 4042 5629 2999 5479 2999 5300 ct 
2999 3328 l  2999 3149 4042 3000 5294 3000 ct p
2999 3000 m  2999 3000 l  p
7589 5629 m  7589 5629 l  p ef
0.003 0.003 0.003 c 5294 3000 m  4042 3000 2999 3149 2999 3328 ct 2999 5300 l 
2999 5479 4042 5629 5294 5629 ct 6545 5629 7589 5479 7589 5300 ct 7589 3328 l 
7589 3149 6545 3000 5294 3000 ct 5294 3000 l  pc
2999 3000 m  2999 3000 l  pc
7589 5629 m  7589 5629 l  pc
1.000 1.000 0.761 c 5294 3000 m  5294 3000 l  6545 3000 7589 3149 7589 3328 ct 
7589 3507 6545 3657 5294 3657 ct 4042 3657 2999 3507 2999 3328 ct 2999 3149 4042 3000 5294 3000 ct 
p
2999 3000 m  2999 3000 l  p
7589 5629 m  7589 5629 l  p ef
0.003 0.003 0.003 c 5294 3000 m  4042 3000 2999 3149 2999 3328 ct 2999 3507 4042 3657 5294 3657 ct 
6545 3657 7589 3507 7589 3328 ct 7589 3149 6545 3000 5294 3000 ct 5294 3000 l 
pc
2999 3000 m  2999 3000 l  pc
7589 5629 m  7589 5629 l  pc
pum
3205 4690 t
0.082 0.078 0.074 c 57 0 m  235 0 l  352 0 424 -88 424 -232 ct 424 -375 352 -463 235 -463 ct 
57 -463 l  57 0 l  p
116 -52 m  116 -411 l  225 -411 l  316 -411 364 -349 364 -231 ct 364 -114 316 -52 225 -52 ct 
116 -52 l  p ef
704 -470 m  571 -470 481 -372 481 -227 ct 481 -83 571 15 705 15 ct 761 15 811 -2 848 -34 ct 
898 -76 928 -148 928 -224 ct 928 -373 840 -470 704 -470 ct p
704 -418 m  804 -418 869 -342 869 -225 ct 869 -113 802 -37 705 -37 ct 606 -37 540 -113 540 -227 ct 
540 -342 606 -418 704 -418 ct p ef
1156 -411 m  1308 -411 l  1308 -463 l  944 -463 l  944 -411 l  1097 -411 l 
1097 -1 l  1156 -1 l  1156 -411 l  p ef
1949 -244 m  1756 -244 l  1756 -192 l  1897 -192 l  1897 -179 l  1897 -97 1836 -37 1752 -37 ct 
1705 -37 1662 -54 1635 -84 ct 1604 -117 1586 -172 1586 -229 ct 1586 -343 1651 -418 1749 -418 ct 
1819 -418 1870 -382 1883 -322 ct 1943 -322 l  1926 -416 1855 -470 1749 -470 ct 
1693 -470 1647 -455 1611 -426 ct 1557 -381 1527 -309 1527 -226 ct 1527 -84 1614 15 1739 15 ct 
1802 15 1852 -8 1897 -59 ct 1912 3 l  1949 3 l  1949 -244 l  p ef
2038 -332 m  2038 0 l  2091 0 l  2091 -173 l  2091 -220 2103 -251 2129 -270 ct 
2145 -282 2161 -286 2198 -286 ct 2198 -340 l  2189 -341 2185 -342 2178 -342 ct 
2143 -342 2117 -322 2087 -272 ct 2087 -332 l  2038 -332 l  p ef
2546 -31 m  2540 -29 2537 -29 2534 -29 ct 2516 -29 2506 -39 2506 -55 ct 2506 -251 l 
2506 -310 2463 -342 2381 -342 ct 2332 -342 2292 -328 2270 -303 ct 2255 -286 2249 -267 2247 -234 ct 
2301 -234 l  2305 -275 2329 -293 2379 -293 ct 2426 -293 2453 -275 2453 -243 ct 
2453 -229 l  2453 -207 2440 -198 2398 -193 ct 2323 -183 2311 -181 2291 -172 ct 
2252 -156 2233 -127 2233 -83 ct 2233 -23 2275 15 2342 15 ct 2384 15 2417 0 2455 -34 ct 
2459 0 2475 15 2510 15 ct 2520 15 2529 14 2546 9 ct 2546 -31 l  p
2453 -104 m  2453 -87 2448 -76 2432 -61 ct 2410 -41 2384 -31 2353 -31 ct 2312 -31 2288 -51 2288 -85 ct 
2288 -120 2311 -137 2368 -146 ct 2424 -153 2435 -156 2453 -164 ct 2453 -104 l 
p ef
2601 -332 m  2601 0 l  2655 0 l  2655 -209 l  2655 -257 2690 -296 2733 -296 ct 
2772 -296 2794 -272 2794 -229 ct 2794 0 l  2848 0 l  2848 -209 l  2848 -257 2883 -296 2926 -296 ct 
2965 -296 2988 -271 2988 -229 ct 2988 0 l  3041 0 l  3041 -249 l  3041 -309 3007 -342 2944 -342 ct 
2900 -342 2873 -329 2842 -291 ct 2822 -327 2796 -342 2753 -342 ct 2708 -342 2679 -326 2650 -286 ct 
2650 -332 l  2601 -332 l  p ef
3130 -332 m  3130 0 l  3184 0 l  3184 -209 l  3184 -257 3219 -296 3262 -296 ct 
3301 -296 3323 -272 3323 -229 ct 3323 0 l  3377 0 l  3377 -209 l  3377 -257 3412 -296 3455 -296 ct 
3494 -296 3517 -271 3517 -229 ct 3517 0 l  3570 0 l  3570 -249 l  3570 -309 3536 -342 3473 -342 ct 
3429 -342 3402 -329 3371 -291 ct 3351 -327 3325 -342 3282 -342 ct 3237 -342 3208 -326 3179 -286 ct 
3179 -332 l  3130 -332 l  p ef
3955 -31 m  3949 -29 3946 -29 3943 -29 ct 3925 -29 3915 -39 3915 -55 ct 3915 -251 l 
3915 -310 3872 -342 3790 -342 ct 3741 -342 3701 -328 3679 -303 ct 3664 -286 3658 -267 3656 -234 ct 
3710 -234 l  3714 -275 3738 -293 3788 -293 ct 3835 -293 3862 -275 3862 -243 ct 
3862 -229 l  3862 -207 3849 -198 3807 -193 ct 3732 -183 3720 -181 3700 -172 ct 
3661 -156 3642 -127 3642 -83 ct 3642 -23 3684 15 3751 15 ct 3793 15 3826 0 3864 -34 ct 
3868 0 3884 15 3919 15 ct 3929 15 3938 14 3955 9 ct 3955 -31 l  p
3862 -104 m  3862 -87 3857 -76 3841 -61 ct 3819 -41 3793 -31 3762 -31 ct 3721 -31 3697 -51 3697 -85 ct 
3697 -120 3720 -137 3777 -146 ct 3833 -153 3844 -156 3862 -164 ct 3862 -104 l 
p ef
4011 -332 m  4011 0 l  4064 0 l  4064 -173 l  4064 -220 4076 -251 4102 -270 ct 
4118 -282 4134 -286 4171 -286 ct 4171 -340 l  4162 -341 4158 -342 4151 -342 ct 
4116 -342 4090 -322 4060 -272 ct 4060 -332 l  4011 -332 l  p ef
pom
0.503 0.503 0.503 c 18870 5927 m  21164 5927 l  22312 7899 l  21164 9872 l 
18870 9872 l  17723 7899 l  18870 5927 l  p
17723 5927 m  17723 5927 l  p
22312 9873 m  22312 9873 l  p ef
18870 5927 m  21164 5927 l  22312 7899 l  21164 9872 l  18870 9872 l  17723 7899 l 
18870 5927 l  pc
17723 5927 m  17723 5927 l  pc
22312 9873 m  22312 9873 l  pc
pum
19357 7718 t
56 0 m  235 0 l  351 0 423 -88 423 -232 ct 423 -375 352 -463 235 -463 ct 56 -463 l 
56 0 l  p
115 -52 m  115 -411 l  224 -411 l  316 -411 364 -349 364 -231 ct 364 -114 316 -52 224 -52 ct 
115 -52 l  p ef
704 -470 m  571 -470 481 -372 481 -228 ct 481 -83 571 15 704 15 ct 760 15 810 -2 848 -34 ct 
898 -76 927 -148 927 -224 ct 927 -373 839 -470 704 -470 ct p
704 -418 m  804 -418 868 -342 868 -225 ct 868 -113 802 -37 704 -37 ct 606 -37 540 -113 540 -228 ct 
540 -342 606 -418 704 -418 ct p ef
1155 -411 m  1307 -411 l  1307 -463 l  944 -463 l  944 -411 l  1096 -411 l 
1096 -1 l  1155 -1 l  1155 -411 l  p ef
pom
pum
19088 8505 t
117 -196 m  262 -196 l  298 -196 327 -207 351 -229 ct 379 -254 391 -284 391 -326 ct 
391 -413 340 -462 249 -462 ct 58 -462 l  58 0 l  117 0 l  117 -196 l  p
117 -248 m  117 -410 l  240 -410 l  296 -410 330 -380 330 -329 ct 330 -278 296 -248 240 -248 ct 
117 -248 l  p ef
750 -31 m  744 -29 742 -29 739 -29 ct 720 -29 710 -39 710 -55 ct 710 -251 l 
710 -310 667 -342 585 -342 ct 537 -342 497 -328 475 -303 ct 460 -286 453 -267 452 -234 ct 
505 -234 l  510 -275 534 -293 583 -293 ct 631 -293 658 -275 658 -243 ct 658 -230 l 
658 -207 644 -198 602 -193 ct 528 -183 516 -181 496 -172 ct 457 -156 438 -127 438 -83 ct 
438 -23 479 15 547 15 ct 589 15 622 0 660 -34 ct 663 0 680 15 714 15 ct 725 15 733 14 750 9 ct 
750 -31 l  p
658 -104 m  658 -87 653 -76 637 -61 ct 615 -41 589 -31 558 -31 ct 517 -31 493 -51 493 -85 ct 
493 -120 516 -137 573 -146 ct 628 -153 640 -156 658 -164 ct 658 -104 l  p ef
806 -332 m  806 0 l  859 0 l  859 -173 l  859 -220 871 -251 896 -270 ct 913 -282 929 -286 966 -286 ct 
966 -340 l  957 -341 952 -342 945 -342 ct 911 -342 885 -322 855 -272 ct 855 -332 l 
806 -332 l  p ef
1256 -240 m  1255 -305 1212 -342 1135 -342 ct 1058 -342 1008 -302 1008 -240 ct 
1008 -188 1034 -163 1113 -144 ct 1163 -132 l  1199 -123 1214 -110 1214 -86 ct 
1214 -55 1183 -34 1137 -34 ct 1108 -34 1084 -42 1071 -56 ct 1062 -66 1059 -75 1055 -99 ct 
1000 -99 l  1002 -22 1045 15 1132 15 ct 1216 15 1269 -26 1269 -90 ct 1269 -140 1241 -167 1175 -183 ct 
1124 -195 l  1081 -205 1063 -219 1063 -243 ct 1063 -273 1090 -293 1133 -293 ct 
1176 -293 1199 -275 1200 -240 ct 1256 -240 l  p ef
1620 -148 m  1620 -199 1616 -229 1607 -254 ct 1585 -309 1535 -342 1473 -342 ct 
1380 -342 1320 -271 1320 -162 ct 1320 -52 1378 15 1471 15 ct 1547 15 1600 -28 1613 -100 ct 
1560 -100 l  1545 -57 1516 -34 1473 -34 ct 1440 -34 1411 -49 1393 -77 ct 1381 -96 1376 -115 1376 -148 ct 
1620 -148 l  p
1377 -191 m  1381 -253 1419 -293 1472 -293 ct 1524 -293 1564 -250 1564 -195 ct 
1564 -194 1564 -192 1563 -191 ct 1377 -191 l  p ef
1691 -332 m  1691 0 l  1744 0 l  1744 -173 l  1744 -220 1756 -251 1781 -270 ct 
1798 -282 1814 -286 1851 -286 ct 1851 -340 l  1842 -341 1837 -342 1830 -342 ct 
1796 -342 1770 -322 1740 -272 ct 1740 -332 l  1691 -332 l  p ef
pom
0.003 0.800 0.800 c 18570 5627 m  20864 5627 l  22012 7599 l  20864 9572 l 
18570 9572 l  17423 7599 l  18570 5627 l  p
17423 5627 m  17423 5627 l  p
22012 9573 m  22012 9573 l  p ef
0.003 0.003 0.003 c 18570 5627 m  20864 5627 l  22012 7599 l  20864 9572 l 
18570 9572 l  17423 7599 l  18570 5627 l  pc
17423 5627 m  17423 5627 l  pc
22012 9573 m  22012 9573 l  pc
pum
19057 7418 t
0.082 0.078 0.074 c 56 0 m  235 0 l  351 0 423 -88 423 -232 ct 423 -375 352 -463 235 -463 ct 
56 -463 l  56 0 l  p
115 -52 m  115 -411 l  224 -411 l  316 -411 364 -349 364 -231 ct 364 -114 316 -52 224 -52 ct 
115 -52 l  p ef
704 -470 m  571 -470 481 -372 481 -228 ct 481 -83 571 15 704 15 ct 760 15 810 -2 848 -34 ct 
898 -76 927 -148 927 -224 ct 927 -373 839 -470 704 -470 ct p
704 -418 m  804 -418 868 -342 868 -225 ct 868 -113 802 -37 704 -37 ct 606 -37 540 -113 540 -228 ct 
540 -342 606 -418 704 -418 ct p ef
1155 -411 m  1307 -411 l  1307 -463 l  944 -463 l  944 -411 l  1096 -411 l 
1096 -1 l  1155 -1 l  1155 -411 l  p ef
pom
pum
18788 8205 t
117 -196 m  262 -196 l  298 -196 327 -207 351 -229 ct 379 -254 391 -284 391 -326 ct 
391 -413 340 -462 249 -462 ct 58 -462 l  58 0 l  117 0 l  117 -196 l  p
117 -248 m  117 -410 l  240 -410 l  296 -410 330 -380 330 -329 ct 330 -278 296 -248 240 -248 ct 
117 -248 l  p ef
750 -31 m  744 -29 742 -29 739 -29 ct 720 -29 710 -39 710 -55 ct 710 -251 l 
710 -310 667 -342 585 -342 ct 537 -342 497 -328 475 -303 ct 460 -286 453 -267 452 -234 ct 
505 -234 l  510 -275 534 -293 583 -293 ct 631 -293 658 -275 658 -243 ct 658 -230 l 
658 -207 644 -198 602 -193 ct 528 -183 516 -181 496 -172 ct 457 -156 438 -127 438 -83 ct 
438 -23 479 15 547 15 ct 589 15 622 0 660 -34 ct 663 0 680 15 714 15 ct 725 15 733 14 750 9 ct 
750 -31 l  p
658 -104 m  658 -87 653 -76 637 -61 ct 615 -41 589 -31 558 -31 ct 517 -31 493 -51 493 -85 ct 
493 -120 516 -137 573 -146 ct 628 -153 640 -156 658 -164 ct 658 -104 l  p ef
806 -332 m  806 0 l  859 0 l  859 -173 l  859 -220 871 -251 896 -270 ct 913 -282 929 -286 966 -286 ct 
966 -340 l  957 -341 952 -342 945 -342 ct 911 -342 885 -322 855 -272 ct 855 -332 l 
806 -332 l  p ef
1256 -240 m  1255 -305 1212 -342 1135 -342 ct 1058 -342 1008 -302 1008 -240 ct 
1008 -188 1034 -163 1113 -144 ct 1163 -132 l  1199 -123 1214 -110 1214 -86 ct 
1214 -55 1183 -34 1137 -34 ct 1108 -34 1084 -42 1071 -56 ct 1062 -66 1059 -75 1055 -99 ct 
1000 -99 l  1002 -22 1045 15 1132 15 ct 1216 15 1269 -26 1269 -90 ct 1269 -140 1241 -167 1175 -183 ct 
1124 -195 l  1081 -205 1063 -219 1063 -243 ct 1063 -273 1090 -293 1133 -293 ct 
1176 -293 1199 -275 1200 -240 ct 1256 -240 l  p ef
1620 -148 m  1620 -199 1616 -229 1607 -254 ct 1585 -309 1535 -342 1473 -342 ct 
1380 -342 1320 -271 1320 -162 ct 1320 -52 1378 15 1471 15 ct 1547 15 1600 -28 1613 -100 ct 
1560 -100 l  1545 -57 1516 -34 1473 -34 ct 1440 -34 1411 -49 1393 -77 ct 1381 -96 1376 -115 1376 -148 ct 
1620 -148 l  p
1377 -191 m  1381 -253 1419 -293 1472 -293 ct 1524 -293 1564 -250 1564 -195 ct 
1564 -194 1564 -192 1563 -191 ct 1377 -191 l  p ef
1691 -332 m  1691 0 l  1744 0 l  1744 -173 l  1744 -220 1756 -251 1781 -270 ct 
1798 -282 1814 -286 1851 -286 ct 1851 -340 l  1842 -341 1837 -342 1830 -342 ct 
1796 -342 1770 -322 1740 -272 ct 1740 -332 l  1691 -332 l  p ef
pom
0.753 0.753 0.753 c 32083 9572 m  27166 9572 l  27166 3000 l  37000 3000 l 
37000 9572 l  32083 9572 l  p ef
0.003 0.003 0.003 c 32083 9572 m  27166 9572 l  27166 3000 l  37000 3000 l 
37000 9572 l  32083 9572 l  pc
pum
29698 6498 t
0.082 0.078 0.074 c 56 0 m  235 0 l  351 0 423 -88 423 -232 ct 423 -375 352 -463 235 -463 ct 
56 -463 l  56 0 l  p
115 -52 m  115 -411 l  224 -411 l  316 -411 364 -349 364 -231 ct 364 -114 316 -52 224 -52 ct 
115 -52 l  p ef
704 -470 m  571 -470 481 -372 481 -228 ct 481 -83 571 15 704 15 ct 760 15 810 -2 848 -34 ct 
898 -76 927 -148 927 -224 ct 927 -373 839 -470 704 -470 ct p
704 -418 m  804 -418 868 -342 868 -225 ct 868 -113 802 -37 704 -37 ct 606 -37 540 -113 540 -228 ct 
540 -342 606 -418 704 -418 ct p ef
1155 -411 m  1307 -411 l  1307 -463 l  944 -463 l  944 -411 l  1096 -411 l 
1096 -1 l  1155 -1 l  1155 -411 l  p ef
1949 -244 m  1756 -244 l  1756 -192 l  1897 -192 l  1897 -179 l  1897 -97 1836 -37 1751 -37 ct 
1704 -37 1662 -54 1635 -84 ct 1604 -117 1586 -172 1586 -229 ct 1586 -343 1651 -418 1748 -418 ct 
1819 -418 1869 -382 1882 -322 ct 1942 -322 l  1926 -416 1855 -470 1749 -470 ct 
1692 -470 1647 -455 1611 -426 ct 1557 -381 1527 -309 1527 -226 ct 1527 -84 1614 15 1739 15 ct 
1801 15 1852 -8 1897 -59 ct 1911 3 l  1949 3 l  1949 -244 l  p ef
2038 -332 m  2038 0 l  2091 0 l  2091 -173 l  2091 -220 2103 -251 2128 -270 ct 
2145 -282 2161 -286 2198 -286 ct 2198 -340 l  2189 -341 2184 -342 2177 -342 ct 
2143 -342 2117 -322 2087 -272 ct 2087 -332 l  2038 -332 l  p ef
2545 -31 m  2539 -29 2537 -29 2534 -29 ct 2515 -29 2505 -39 2505 -55 ct 2505 -251 l 
2505 -310 2462 -342 2380 -342 ct 2332 -342 2292 -328 2270 -303 ct 2255 -286 2248 -267 2247 -234 ct 
2300 -234 l  2305 -275 2329 -293 2378 -293 ct 2426 -293 2453 -275 2453 -243 ct 
2453 -230 l  2453 -207 2439 -198 2397 -193 ct 2323 -183 2311 -181 2291 -172 ct 
2252 -156 2233 -127 2233 -83 ct 2233 -23 2274 15 2342 15 ct 2384 15 2417 0 2455 -34 ct 
2458 0 2475 15 2509 15 ct 2520 15 2528 14 2545 9 ct 2545 -31 l  p
2453 -104 m  2453 -87 2448 -76 2432 -61 ct 2410 -41 2384 -31 2353 -31 ct 2312 -31 2288 -51 2288 -85 ct 
2288 -120 2311 -137 2368 -146 ct 2423 -153 2435 -156 2453 -164 ct 2453 -104 l 
p ef
2591 138 m  2644 138 l  2644 -35 l  2672 -1 2703 15 2747 15 ct 2832 15 2889 -55 2889 -161 ct 
2889 -273 2834 -342 2746 -342 ct 2701 -342 2665 -322 2640 -283 ct 2640 -333 l 
2591 -333 l  2591 138 l  p
2737 -293 m  2795 -293 2833 -242 2833 -162 ct 2833 -86 2795 -35 2737 -35 ct 
2681 -35 2644 -86 2644 -164 ct 2644 -242 2681 -293 2737 -293 ct p ef
2952 -463 m  2952 0 l  3005 0 l  3005 -183 l  3005 -251 3041 -296 3095 -296 ct 
3112 -296 3129 -290 3142 -280 ct 3157 -270 3164 -254 3164 -230 ct 3164 0 l  3216 0 l 
3216 -251 l  3216 -307 3176 -342 3112 -342 ct 3065 -342 3036 -327 3005 -287 ct 
3005 -463 l  2952 -463 l  p ef
3553 -211 m  3774 -211 l  3774 -263 l  3553 -263 l  3553 -411 l  3804 -411 l 
3804 -463 l  3494 -463 l  3494 -1 l  3553 -1 l  3553 -211 l  p ef
3918 -332 m  3865 -332 l  3865 0 l  3918 0 l  3918 -332 l  p
3918 -463 m  3865 -463 l  3865 -396 l  3918 -396 l  3918 -463 l  p ef
4058 -463 m  4005 -463 l  4005 0 l  4058 0 l  4058 -463 l  p ef
4427 -148 m  4427 -199 4423 -229 4414 -254 ct 4392 -309 4342 -342 4280 -342 ct 
4187 -342 4127 -271 4127 -162 ct 4127 -52 4185 15 4278 15 ct 4354 15 4407 -28 4420 -100 ct 
4367 -100 l  4352 -57 4323 -34 4280 -34 ct 4247 -34 4218 -49 4200 -77 ct 4188 -96 4183 -115 4183 -148 ct 
4427 -148 l  p
4184 -191 m  4188 -253 4226 -293 4279 -293 ct 4331 -293 4371 -250 4371 -195 ct 
4371 -194 4371 -192 4370 -191 ct 4184 -191 l  p ef
4731 -240 m  4730 -305 4687 -342 4610 -342 ct 4533 -342 4483 -302 4483 -240 ct 
4483 -188 4509 -163 4588 -144 ct 4638 -132 l  4674 -123 4689 -110 4689 -86 ct 
4689 -55 4658 -34 4612 -34 ct 4583 -34 4559 -42 4546 -56 ct 4537 -66 4534 -75 4530 -99 ct 
4475 -99 l  4477 -22 4520 15 4607 15 ct 4691 15 4744 -26 4744 -90 ct 4744 -140 4716 -167 4650 -183 ct 
4599 -195 l  4556 -205 4538 -219 4538 -243 ct 4538 -273 4565 -293 4608 -293 ct 
4651 -293 4674 -275 4675 -240 ct 4731 -240 l  p ef
pom
0.003 0.003 0.003 c 5294 5628 m  5294 7313 l  6933 7313 l  ps
27166 6286 m  24739 6286 l  24739 7599 l  22011 7599 l  ps
0.601 0.800 1.000 c 9992 12859 m  14361 12859 l  14580 12859 14800 13078 14800 13297 ct 
14800 15049 l  14800 15268 14580 15488 14361 15488 ct 9992 15488 l  9773 15488 9554 15268 9554 15049 ct 
9554 13297 l  9554 13078 9773 12859 9992 12859 ct p
9554 12859 m  9554 12859 l  p
14800 15488 m  14800 15488 l  p ef
0.003 0.003 0.003 c 9992 12859 m  9773 12859 9554 13078 9554 13297 ct 9554 15049 l 
9554 15268 9773 15488 9992 15488 ct 14361 15488 l  14580 15488 14800 15268 14800 15049 ct 
14800 13297 l  14800 13078 14580 12859 14361 12859 ct 9992 12859 l  pc
9554 12859 m  9554 12859 l  pc
14800 15488 m  14800 15488 l  pc
pum
10869 13991 t
0.082 0.078 0.074 c 224 -411 m  376 -411 l  376 -463 l  13 -463 l  13 -411 l 
165 -411 l  165 -1 l  224 -1 l  224 -411 l  p ef
506 -342 m  413 -342 357 -275 357 -163 ct 357 -52 413 15 507 15 ct 600 15 657 -52 657 -161 ct 
657 -276 602 -342 506 -342 ct p
507 -293 m  567 -293 602 -244 602 -162 ct 602 -83 565 -34 507 -34 ct 448 -34 412 -83 412 -163 ct 
412 -243 448 -293 507 -293 ct p ef
775 -463 m  723 -463 l  723 0 l  775 0 l  775 -129 l  827 -180 l  939 0 l 
1004 0 l  869 -218 l  984 -332 l  916 -332 l  775 -192 l  775 -463 l  p ef
1320 -148 m  1320 -199 1316 -229 1307 -254 ct 1285 -309 1235 -342 1173 -342 ct 
1080 -342 1020 -271 1020 -162 ct 1020 -52 1078 15 1171 15 ct 1247 15 1300 -28 1313 -100 ct 
1260 -100 l  1245 -57 1216 -34 1173 -34 ct 1140 -34 1111 -49 1093 -77 ct 1081 -96 1076 -115 1076 -148 ct 
1320 -148 l  p
1077 -191 m  1081 -253 1119 -293 1172 -293 ct 1224 -293 1264 -250 1264 -195 ct 
1264 -194 1264 -192 1263 -191 ct 1077 -191 l  p ef
1390 -332 m  1390 0 l  1444 0 l  1444 -183 l  1444 -251 1479 -296 1534 -296 ct 
1576 -296 1602 -270 1602 -230 ct 1602 0 l  1655 0 l  1655 -251 l  1655 -306 1614 -342 1550 -342 ct 
1500 -342 1468 -323 1439 -277 ct 1439 -332 l  1390 -332 l  p ef
1976 -240 m  1975 -305 1932 -342 1855 -342 ct 1778 -342 1728 -302 1728 -240 ct 
1728 -188 1754 -163 1833 -144 ct 1883 -132 l  1919 -123 1934 -110 1934 -86 ct 
1934 -55 1903 -34 1857 -34 ct 1828 -34 1804 -42 1791 -56 ct 1782 -66 1779 -75 1775 -99 ct 
1720 -99 l  1722 -22 1765 15 1852 15 ct 1936 15 1989 -26 1989 -90 ct 1989 -140 1961 -167 1895 -183 ct 
1844 -195 l  1801 -205 1783 -219 1783 -243 ct 1783 -273 1810 -293 1853 -293 ct 
1896 -293 1919 -275 1920 -240 ct 1976 -240 l  p ef
2506 -212 m  2506 -189 2499 -159 2486 -136 ct 2402 -240 l  2468 -277 2489 -304 2489 -350 ct 
2489 -408 2446 -449 2386 -449 ct 2326 -449 2277 -406 2277 -350 ct 2277 -320 2289 -296 2329 -247 ct 
2250 -201 2226 -169 2226 -111 ct 2226 -35 2278 15 2356 15 ct 2387 15 2417 7 2440 -8 ct 
2453 -16 2464 -26 2488 -49 ct 2528 0 l  2597 0 l  2520 -96 l  2543 -132 2556 -174 2556 -212 ct 
2506 -212 l  p
2374 -273 m  2335 -318 2329 -328 2329 -351 ct 2329 -383 2351 -405 2384 -405 ct 
2416 -405 2439 -382 2439 -351 ct 2439 -323 2423 -304 2374 -273 ct p
2458 -87 m  2423 -49 2395 -35 2362 -35 ct 2317 -35 2279 -71 2279 -116 ct 2279 -152 2299 -177 2357 -214 ct 
2458 -87 l  p ef
pom
pum
11565 14778 t
301 -139 m  348 0 l  414 0 l  252 -463 l  176 -463 l  11 0 l  74 0 l  122 -139 l 
301 -139 l  p
284 -189 m  137 -189 l  213 -399 l  284 -189 l  p ef
801 -327 m  800 -417 738 -470 632 -470 ct 530 -470 467 -418 467 -334 ct 467 -278 497 -242 558 -226 ct 
673 -196 l  731 -181 758 -157 758 -121 ct 758 -96 744 -71 725 -57 ct 706 -44 677 -37 640 -37 ct 
590 -37 556 -49 533 -76 ct 516 -96 509 -118 509 -147 ct 453 -147 l  454 -104 462 -76 481 -51 ct 
512 -8 566 15 636 15 ct 691 15 736 2 766 -21 ct 797 -45 817 -87 817 -127 ct 817 -184 781 -226 718 -243 ct 
602 -274 l  547 -289 526 -307 526 -342 ct 526 -389 568 -421 630 -421 ct 703 -421 744 -387 745 -327 ct 
801 -327 l  p ef
1058 -411 m  1210 -411 l  1210 -463 l  847 -463 l  847 -411 l  999 -411 l 
999 -1 l  1058 -1 l  1058 -411 l  p ef
pom
0.003 0.003 0.003 c 14144 7313 m  14945 7313 l  16922 7599 l  17063 7599 l 
ps
17423 7599 m  16973 7449 l  16973 7749 l  17423 7599 l  p ef
19716 9571 m  19716 10374 l  12177 12358 l  12177 12499 l  ps
12177 12859 m  12327 12409 l  12027 12409 l  12177 12859 l  p ef
0.601 0.203 0.402 c 8362 18772 m  11150 18772 13279 19626 13279 20744 ct 13279 21862 11150 22716 8362 22716 ct 
5574 22716 3445 21862 3445 20744 ct 3445 19626 5574 18772 8362 18772 ct p
3445 18772 m  3445 18772 l  p
13280 22717 m  13280 22717 l  p ef
0.003 0.003 0.003 c 8362 18772 m  11150 18772 13279 19626 13279 20744 ct 13279 21862 11150 22716 8362 22716 ct 
5574 22716 3445 21862 3445 20744 ct 3445 19626 5574 18772 8362 18772 ct pc
3445 18772 m  3445 18772 l  pc
13280 22717 m  13280 22717 l  pc
pum
5484 21028 t
1.000 1.000 1.000 c 156 -262 m  350 -262 l  398 -262 436 -276 469 -306 ct 
507 -340 523 -380 523 -437 ct 523 -553 454 -618 332 -618 ct 77 -618 l  77 0 l 
156 0 l  156 -262 l  p
156 -332 m  156 -548 l  320 -548 l  396 -548 440 -508 440 -440 ct 440 -372 396 -332 320 -332 ct 
156 -332 l  p ef
621 -444 m  621 0 l  693 0 l  693 -231 l  693 -294 709 -336 743 -360 ct 765 -376 786 -382 835 -382 ct 
835 -454 l  823 -456 817 -457 808 -457 ct 762 -457 727 -430 687 -364 ct 687 -444 l 
621 -444 l  p ef
1277 -199 m  1277 -267 1271 -307 1259 -340 ct 1230 -413 1162 -457 1079 -457 ct 
956 -457 876 -362 876 -217 ct 876 -71 953 19 1077 19 ct 1179 19 1249 -39 1267 -135 ct 
1196 -135 l  1177 -77 1137 -46 1080 -46 ct 1035 -46 997 -67 973 -104 ct 956 -129 950 -155 950 -199 ct 
1277 -199 l  p
951 -257 m  957 -339 1007 -392 1078 -392 ct 1148 -392 1201 -334 1201 -262 ct 
1201 -260 1201 -258 1200 -257 ct 951 -257 l  p ef
1531 -445 m  1457 -445 l  1457 -514 l  1457 -543 1474 -558 1506 -558 ct 1512 -558 1514 -558 1531 -558 ct 
1531 -617 l  1514 -620 1505 -621 1491 -621 ct 1426 -621 1387 -584 1387 -520 ct 
1387 -445 l  1327 -445 l  1327 -387 l  1387 -387 l  1387 -1 l  1457 -1 l 
1457 -387 l  1531 -387 l  1531 -445 l  p ef
1957 -1 m  1957 -445 l  1887 -445 l  1887 -193 l  1887 -102 1840 -43 1766 -43 ct 
1710 -43 1674 -77 1674 -130 ct 1674 -445 l  1604 -445 l  1604 -102 l  1604 -29 1659 19 1746 19 ct 
1811 19 1852 -4 1894 -62 ct 1894 -1 l  1957 -1 l  p ef
2390 -321 m  2389 -408 2332 -457 2229 -457 ct 2126 -457 2059 -404 2059 -322 ct 
2059 -252 2094 -219 2199 -194 ct 2265 -178 l  2315 -166 2334 -148 2334 -116 ct 
2334 -74 2293 -46 2231 -46 ct 2193 -46 2160 -57 2143 -76 ct 2132 -89 2127 -101 2122 -133 ct 
2048 -133 l  2051 -30 2109 19 2225 19 ct 2337 19 2408 -36 2408 -122 ct 2408 -188 2371 -224 2282 -245 ct 
2215 -261 l  2157 -275 2133 -294 2133 -325 ct 2133 -366 2169 -392 2227 -392 ct 
2283 -392 2314 -367 2315 -321 ct 2390 -321 l  p ef
2878 -199 m  2878 -267 2872 -307 2860 -340 ct 2831 -413 2763 -457 2680 -457 ct 
2557 -457 2477 -362 2477 -217 ct 2477 -71 2554 19 2678 19 ct 2780 19 2850 -39 2868 -135 ct 
2797 -135 l  2778 -77 2738 -46 2681 -46 ct 2636 -46 2598 -67 2574 -104 ct 2557 -129 2551 -155 2551 -199 ct 
2878 -199 l  p
2552 -257 m  2558 -339 2608 -392 2679 -392 ct 2749 -392 2802 -334 2802 -262 ct 
2802 -260 2802 -258 2801 -257 ct 2552 -257 l  p ef
3297 -618 m  3218 -618 l  3218 0 l  3601 0 l  3601 -70 l  3297 -70 l  3297 -618 l 
p ef
3747 -444 m  3677 -444 l  3677 0 l  3747 0 l  3747 -444 l  p
3747 -618 m  3676 -618 l  3676 -529 l  3747 -529 l  3747 -618 l  p ef
3852 -619 m  3852 -1 l  3915 -1 l  3915 -57 l  3949 -6 3994 19 4056 19 ct 
4173 19 4249 -77 4249 -224 ct 4249 -368 4176 -457 4059 -457 ct 3998 -457 3955 -434 3922 -384 ct 
3922 -619 l  3852 -619 l  p
4046 -391 m  4124 -391 4175 -322 4175 -217 ct 4175 -116 4123 -47 4046 -47 ct 
3971 -47 3922 -115 3922 -219 ct 3922 -323 3971 -391 4046 -391 ct p ef
4334 -444 m  4334 0 l  4406 0 l  4406 -231 l  4406 -294 4422 -336 4456 -360 ct 
4478 -376 4499 -382 4548 -382 ct 4548 -454 l  4536 -456 4530 -457 4521 -457 ct 
4475 -457 4440 -430 4400 -364 ct 4400 -444 l  4334 -444 l  p ef
5012 -42 m  5005 -40 5001 -40 4997 -40 ct 4972 -40 4959 -53 4959 -75 ct 4959 -336 l 
4959 -415 4901 -457 4792 -457 ct 4728 -457 4674 -439 4645 -406 ct 4624 -383 4616 -357 4614 -313 ct 
4685 -313 l  4691 -367 4723 -392 4789 -392 ct 4853 -392 4888 -368 4888 -326 ct 
4888 -307 l  4888 -278 4871 -265 4815 -258 ct 4715 -245 4700 -242 4673 -231 ct 
4621 -210 4595 -170 4595 -112 ct 4595 -32 4650 19 4740 19 ct 4796 19 4841 -1 4891 -46 ct 
4896 -1 4918 19 4964 19 ct 4978 19 4989 17 5012 11 ct 5012 -42 l  p
4888 -140 m  4888 -117 4882 -102 4861 -83 ct 4832 -56 4797 -43 4756 -43 ct 4700 -43 4668 -69 4668 -114 ct 
4668 -161 4700 -184 4775 -195 ct 4850 -206 4865 -209 4888 -220 ct 4888 -140 l 
p ef
5087 -444 m  5087 0 l  5159 0 l  5159 -231 l  5159 -294 5175 -336 5209 -360 ct 
5231 -376 5252 -382 5301 -382 ct 5301 -454 l  5289 -456 5283 -457 5274 -457 ct 
5228 -457 5193 -430 5153 -364 ct 5153 -444 l  5087 -444 l  p ef
5663 -444 m  5540 -98 l  5426 -444 l  5351 -444 l  5501 2 l  5474 72 l 
5463 104 5447 115 5417 115 ct 5407 115 5395 114 5380 110 ct 5380 174 l  5394 182 5409 185 5427 185 ct 
5450 185 5475 177 5493 164 ct 5515 148 5528 129 5542 93 ct 5739 -444 l  5663 -444 l 
p ef
pom
0.503 0.503 0.503 c 20780 17099 m  21219 17099 l  23076 17099 24934 18956 24934 20813 ct 
24934 21272 l  24934 23129 23076 24986 21219 24986 ct 20780 24986 l  18923 24986 17066 23129 17066 21272 ct 
17066 20813 l  17066 18956 18923 17099 20780 17099 ct p
17066 17099 m  17066 17099 l  p
24934 24987 m  24934 24987 l  p ef
20780 17099 m  18923 17099 17066 18956 17066 20813 ct 17066 21272 l  17066 23129 18923 24986 20780 24986 ct 
21219 24986 l  23076 24986 24934 23129 24934 21272 ct 24934 20813 l  24934 18956 23076 17099 21219 17099 ct 
20780 17099 l  pc
17066 17099 m  17066 17099 l  pc
24934 24987 m  24934 24987 l  pc
pum
18049 20145 t
192 -721 m  99 -721 l  99 0 l  192 0 l  192 -721 l  p ef
363 0 m  641 0 l  822 0 934 -136 934 -361 ct 934 -585 823 -721 641 -721 ct 363 -721 l 
363 0 l  p
455 -81 m  455 -640 l  625 -640 l  767 -640 842 -544 842 -360 ct 842 -178 767 -81 625 -81 ct 
455 -81 l  p ef
1167 -328 m  1559 -328 l  1559 -409 l  1167 -409 l  1167 -640 l  1574 -640 l 
1574 -721 l  1075 -721 l  1075 0 l  1592 0 l  1592 -81 l  1167 -81 l  1167 -328 l 
p ef
2006 0 m  2284 0 l  2465 0 2577 -136 2577 -361 ct 2577 -585 2466 -721 2284 -721 ct 
2006 -721 l  2006 0 l  p
2098 -81 m  2098 -640 l  2268 -640 l  2410 -640 2485 -544 2485 -360 ct 2485 -178 2410 -81 2268 -81 ct 
2098 -81 l  p ef
2777 -518 m  2695 -518 l  2695 0 l  2777 0 l  2777 -518 l  p
2777 -721 m  2694 -721 l  2694 -617 l  2777 -617 l  2777 -721 l  p ef
3282 -374 m  3281 -476 3214 -533 3094 -533 ct 2973 -533 2895 -471 2895 -375 ct 
2895 -294 2937 -255 3059 -225 ct 3137 -207 l  3194 -193 3217 -172 3217 -134 ct 
3217 -86 3168 -53 3096 -53 ct 3052 -53 3014 -66 2993 -88 ct 2980 -103 2974 -117 2970 -154 ct 
2883 -154 l  2887 -34 2954 23 3089 23 ct 3220 23 3302 -41 3302 -141 ct 3302 -218 3259 -261 3156 -286 ct 
3077 -305 l  3010 -320 2981 -342 2981 -379 ct 2981 -426 3024 -457 3091 -457 ct 
3157 -457 3193 -428 3195 -374 ct 3282 -374 l  p ef
3397 216 m  3480 216 l  3480 -54 l  3524 -1 3572 23 3639 23 ct 3773 23 3861 -85 3861 -250 ct 
3861 -424 3776 -533 3638 -533 ct 3568 -533 3512 -501 3473 -440 ct 3473 -518 l 
3397 -518 l  3397 216 l  p
3625 -456 m  3715 -456 3775 -376 3775 -252 ct 3775 -134 3715 -54 3625 -54 ct 
3538 -54 3480 -133 3480 -255 ct 3480 -377 3538 -456 3625 -456 ct p ef
4045 -721 m  3962 -721 l  3962 0 l  4045 0 l  4045 -721 l  p ef
4644 -48 m  4635 -46 4631 -46 4626 -46 ct 4597 -46 4581 -61 4581 -87 ct 4581 -392 l 
4581 -484 4514 -533 4387 -533 ct 4312 -533 4249 -511 4215 -473 ct 4191 -446 4181 -416 4179 -365 ct 
4262 -365 l  4269 -428 4307 -457 4384 -457 ct 4458 -457 4499 -429 4499 -380 ct 
4499 -358 l  4499 -323 4479 -308 4413 -301 ct 4297 -286 4279 -282 4247 -269 ct 
4187 -244 4157 -198 4157 -130 ct 4157 -36 4222 23 4326 23 ct 4392 23 4444 0 4502 -53 ct 
4508 -1 4534 23 4587 23 ct 4604 23 4617 21 4644 14 ct 4644 -48 l  p
4499 -163 m  4499 -135 4491 -118 4467 -96 ct 4433 -65 4393 -49 4344 -49 ct 4280 -49 4242 -80 4242 -132 ct 
4242 -187 4279 -214 4367 -227 ct 4454 -239 4472 -243 4499 -256 ct 4499 -163 l 
p ef
5027 -518 m  4884 -114 l  4752 -518 l  4664 -518 l  4839 2 l  4807 84 l 
4794 121 4775 135 4741 135 ct 4729 135 4715 133 4697 129 ct 4697 203 l  4714 212 4731 216 4753 216 ct 
4779 216 4808 207 4830 191 ct 4855 172 4870 151 4886 109 ct 5116 -518 l  5027 -518 l 
p ef
5564 -374 m  5563 -476 5496 -533 5376 -533 ct 5255 -533 5177 -471 5177 -375 ct 
5177 -294 5219 -255 5341 -225 ct 5419 -207 l  5476 -193 5499 -172 5499 -134 ct 
5499 -86 5450 -53 5378 -53 ct 5334 -53 5296 -66 5275 -88 ct 5262 -103 5256 -117 5252 -154 ct 
5165 -154 l  5169 -34 5236 23 5371 23 ct 5502 23 5584 -41 5584 -141 ct 5584 -218 5541 -261 5438 -286 ct 
5359 -305 l  5292 -320 5263 -342 5263 -379 ct 5263 -426 5306 -457 5373 -457 ct 
5439 -457 5475 -428 5477 -374 ct 5564 -374 l  p ef
pom
pum
20672 21373 t
487 -330 m  488 -294 476 -247 456 -212 ct 325 -374 l  428 -432 461 -474 461 -546 ct 
461 -637 394 -701 300 -701 ct 206 -701 131 -633 131 -546 ct 131 -499 150 -462 211 -384 ct 
89 -313 51 -264 51 -174 ct 51 -55 132 23 254 23 ct 302 23 349 10 384 -13 ct 405 -25 423 -40 460 -77 ct 
522 0 l  629 0 l  509 -149 l  545 -205 566 -271 566 -330 ct 487 -330 l  p
282 -426 m  221 -495 212 -512 212 -547 ct 212 -598 246 -632 297 -632 ct 347 -632 383 -596 383 -548 ct 
383 -503 359 -474 282 -426 ct p
413 -135 m  358 -77 315 -54 264 -54 ct 193 -54 134 -112 134 -181 ct 134 -236 165 -276 255 -333 ct 
413 -135 l  p ef
pom
pum
18250 22601 t
181 -328 m  573 -328 l  573 -409 l  181 -409 l  181 -640 l  588 -640 l 
588 -721 l  89 -721 l  89 0 l  606 0 l  606 -81 l  181 -81 l  181 -328 l 
p ef
1145 -721 m  1063 -721 l  1063 -453 l  1028 -505 973 -533 904 -533 ct 770 -533 682 -425 682 -260 ct 
682 -85 768 23 907 23 ct 978 23 1027 -4 1072 -68 ct 1072 0 l  1145 0 l  1145 -721 l 
p
918 -456 m  1007 -456 1063 -377 1063 -253 ct 1063 -133 1006 -54 919 -54 ct 828 -54 768 -134 768 -255 ct 
768 -376 828 -456 918 -456 ct p ef
1355 -518 m  1273 -518 l  1273 0 l  1355 0 l  1355 -518 l  p
1355 -721 m  1272 -721 l  1272 -617 l  1355 -617 l  1355 -721 l  p ef
1678 -518 m  1593 -518 l  1593 -661 l  1511 -661 l  1511 -518 l  1441 -518 l 
1441 -451 l  1511 -451 l  1511 -59 l  1511 -7 1547 23 1611 23 ct 1631 23 1650 21 1678 16 ct 
1678 -53 l  1667 -50 1654 -49 1638 -49 ct 1603 -49 1593 -59 1593 -96 ct 1593 -451 l 
1678 -451 l  1678 -518 l  p ef
2135 -374 m  2134 -476 2067 -533 1947 -533 ct 1826 -533 1748 -471 1748 -375 ct 
1748 -294 1790 -255 1912 -225 ct 1990 -207 l  2047 -193 2070 -172 2070 -134 ct 
2070 -86 2021 -53 1949 -53 ct 1905 -53 1867 -66 1846 -88 ct 1833 -103 1827 -117 1823 -154 ct 
1736 -154 l  1740 -34 1807 23 1942 23 ct 2073 23 2155 -41 2155 -141 ct 2155 -218 2112 -261 2009 -286 ct 
1930 -305 l  1863 -320 1834 -342 1834 -379 ct 1834 -426 1877 -457 1944 -457 ct 
2010 -457 2046 -428 2048 -374 ct 2135 -374 l  p ef
2879 -518 m  2879 -443 l  2838 -504 2787 -533 2721 -533 ct 2590 -533 2501 -418 2501 -250 ct 
2501 -165 2523 -96 2566 -46 ct 2604 -3 2660 23 2714 23 ct 2779 23 2825 -5 2871 -70 ct 
2871 -43 l  2871 27 2862 70 2842 98 ct 2820 129 2777 147 2727 147 ct 2689 147 2656 137 2633 119 ct 
2614 104 2606 90 2601 60 ct 2517 60 l  2526 158 2602 216 2724 216 ct 2801 216 2867 191 2901 150 ct 
2940 102 2955 37 2955 -85 ct 2955 -518 l  2879 -518 l  p
2730 -457 m  2819 -457 2871 -382 2871 -252 ct 2871 -128 2818 -53 2731 -53 ct 
2641 -53 2587 -129 2587 -255 ct 2587 -380 2642 -457 2730 -457 ct p ef
3091 -518 m  3091 0 l  3174 0 l  3174 -269 l  3174 -343 3193 -392 3232 -420 ct 
3258 -439 3283 -445 3340 -445 ct 3340 -530 l  3326 -532 3319 -533 3309 -533 ct 
3255 -533 3215 -501 3167 -424 ct 3167 -518 l  3091 -518 l  p ef
3882 -48 m  3873 -46 3869 -46 3864 -46 ct 3835 -46 3819 -61 3819 -87 ct 3819 -392 l 
3819 -484 3752 -533 3625 -533 ct 3550 -533 3487 -511 3453 -473 ct 3429 -446 3419 -416 3417 -365 ct 
3500 -365 l  3507 -428 3545 -457 3622 -457 ct 3696 -457 3737 -429 3737 -380 ct 
3737 -358 l  3737 -323 3717 -308 3651 -301 ct 3535 -286 3517 -282 3485 -269 ct 
3425 -244 3395 -198 3395 -130 ct 3395 -36 3460 23 3564 23 ct 3630 23 3682 0 3740 -53 ct 
3746 -1 3772 23 3825 23 ct 3842 23 3855 21 3882 14 ct 3882 -48 l  p
3737 -163 m  3737 -135 3729 -118 3705 -96 ct 3671 -65 3631 -49 3582 -49 ct 3518 -49 3480 -80 3480 -132 ct 
3480 -187 3517 -214 3605 -227 ct 3692 -239 3710 -243 3737 -256 ct 3737 -163 l 
p ef
3956 216 m  4039 216 l  4039 -54 l  4083 -1 4131 23 4198 23 ct 4332 23 4420 -85 4420 -250 ct 
4420 -424 4335 -533 4197 -533 ct 4127 -533 4071 -501 4032 -440 ct 4032 -518 l 
3956 -518 l  3956 216 l  p
4184 -456 m  4274 -456 4334 -376 4334 -252 ct 4334 -134 4274 -54 4184 -54 ct 
4097 -54 4039 -133 4039 -255 ct 4039 -377 4097 -456 4184 -456 ct p ef
4522 -721 m  4522 0 l  4604 0 l  4604 -286 l  4604 -392 4659 -461 4744 -461 ct 
4771 -461 4798 -452 4818 -437 ct 4841 -420 4851 -396 4851 -359 ct 4851 0 l  4933 0 l 
4933 -392 l  4933 -479 4871 -533 4770 -533 ct 4697 -533 4653 -510 4604 -447 ct 
4604 -721 l  4522 -721 l  p ef
5437 -374 m  5436 -476 5369 -533 5249 -533 ct 5128 -533 5050 -471 5050 -375 ct 
5050 -294 5092 -255 5214 -225 ct 5292 -207 l  5349 -193 5372 -172 5372 -134 ct 
5372 -86 5323 -53 5251 -53 ct 5207 -53 5169 -66 5148 -88 ct 5135 -103 5129 -117 5125 -154 ct 
5038 -154 l  5042 -34 5109 23 5244 23 ct 5375 23 5457 -41 5457 -141 ct 5457 -218 5414 -261 5311 -286 ct 
5232 -305 l  5165 -320 5136 -342 5136 -379 ct 5136 -426 5179 -457 5246 -457 ct 
5312 -457 5348 -428 5350 -374 ct 5437 -374 l  p ef
pom
0.003 1.000 0.003 c 20480 16799 m  20919 16799 l  22776 16799 24634 18656 24634 20513 ct 
24634 20972 l  24634 22829 22776 24686 20919 24686 ct 20480 24686 l  18623 24686 16766 22829 16766 20972 ct 
16766 20513 l  16766 18656 18623 16799 20480 16799 ct p
16766 16799 m  16766 16799 l  p
24634 24687 m  24634 24687 l  p ef
0.003 0.003 0.003 c 20480 16799 m  18623 16799 16766 18656 16766 20513 ct 16766 20972 l 
16766 22829 18623 24686 20480 24686 ct 20919 24686 l  22776 24686 24634 22829 24634 20972 ct 
24634 20513 l  24634 18656 22776 16799 20919 16799 ct 20480 16799 l  pc
16766 16799 m  16766 16799 l  pc
24634 24687 m  24634 24687 l  pc
pum
17749 19845 t
0.082 0.078 0.074 c 192 -721 m  99 -721 l  99 0 l  192 0 l  192 -721 l  p ef
363 0 m  641 0 l  822 0 934 -136 934 -361 ct 934 -585 823 -721 641 -721 ct 363 -721 l 
363 0 l  p
455 -81 m  455 -640 l  625 -640 l  767 -640 842 -544 842 -360 ct 842 -178 767 -81 625 -81 ct 
455 -81 l  p ef
1167 -328 m  1559 -328 l  1559 -409 l  1167 -409 l  1167 -640 l  1574 -640 l 
1574 -721 l  1075 -721 l  1075 0 l  1592 0 l  1592 -81 l  1167 -81 l  1167 -328 l 
p ef
2006 0 m  2284 0 l  2465 0 2577 -136 2577 -361 ct 2577 -585 2466 -721 2284 -721 ct 
2006 -721 l  2006 0 l  p
2098 -81 m  2098 -640 l  2268 -640 l  2410 -640 2485 -544 2485 -360 ct 2485 -178 2410 -81 2268 -81 ct 
2098 -81 l  p ef
2777 -518 m  2695 -518 l  2695 0 l  2777 0 l  2777 -518 l  p
2777 -721 m  2694 -721 l  2694 -617 l  2777 -617 l  2777 -721 l  p ef
3282 -374 m  3281 -476 3214 -533 3094 -533 ct 2973 -533 2895 -471 2895 -375 ct 
2895 -294 2937 -255 3059 -225 ct 3137 -207 l  3194 -193 3217 -172 3217 -134 ct 
3217 -86 3168 -53 3096 -53 ct 3052 -53 3014 -66 2993 -88 ct 2980 -103 2974 -117 2970 -154 ct 
2883 -154 l  2887 -34 2954 23 3089 23 ct 3220 23 3302 -41 3302 -141 ct 3302 -218 3259 -261 3156 -286 ct 
3077 -305 l  3010 -320 2981 -342 2981 -379 ct 2981 -426 3024 -457 3091 -457 ct 
3157 -457 3193 -428 3195 -374 ct 3282 -374 l  p ef
3397 216 m  3480 216 l  3480 -54 l  3524 -1 3572 23 3639 23 ct 3773 23 3861 -85 3861 -250 ct 
3861 -424 3776 -533 3638 -533 ct 3568 -533 3512 -501 3473 -440 ct 3473 -518 l 
3397 -518 l  3397 216 l  p
3625 -456 m  3715 -456 3775 -376 3775 -252 ct 3775 -134 3715 -54 3625 -54 ct 
3538 -54 3480 -133 3480 -255 ct 3480 -377 3538 -456 3625 -456 ct p ef
4045 -721 m  3962 -721 l  3962 0 l  4045 0 l  4045 -721 l  p ef
4644 -48 m  4635 -46 4631 -46 4626 -46 ct 4597 -46 4581 -61 4581 -87 ct 4581 -392 l 
4581 -484 4514 -533 4387 -533 ct 4312 -533 4249 -511 4215 -473 ct 4191 -446 4181 -416 4179 -365 ct 
4262 -365 l  4269 -428 4307 -457 4384 -457 ct 4458 -457 4499 -429 4499 -380 ct 
4499 -358 l  4499 -323 4479 -308 4413 -301 ct 4297 -286 4279 -282 4247 -269 ct 
4187 -244 4157 -198 4157 -130 ct 4157 -36 4222 23 4326 23 ct 4392 23 4444 0 4502 -53 ct 
4508 -1 4534 23 4587 23 ct 4604 23 4617 21 4644 14 ct 4644 -48 l  p
4499 -163 m  4499 -135 4491 -118 4467 -96 ct 4433 -65 4393 -49 4344 -49 ct 4280 -49 4242 -80 4242 -132 ct 
4242 -187 4279 -214 4367 -227 ct 4454 -239 4472 -243 4499 -256 ct 4499 -163 l 
p ef
5027 -518 m  4884 -114 l  4752 -518 l  4664 -518 l  4839 2 l  4807 84 l 
4794 121 4775 135 4741 135 ct 4729 135 4715 133 4697 129 ct 4697 203 l  4714 212 4731 216 4753 216 ct 
4779 216 4808 207 4830 191 ct 4855 172 4870 151 4886 109 ct 5116 -518 l  5027 -518 l 
p ef
5564 -374 m  5563 -476 5496 -533 5376 -533 ct 5255 -533 5177 -471 5177 -375 ct 
5177 -294 5219 -255 5341 -225 ct 5419 -207 l  5476 -193 5499 -172 5499 -134 ct 
5499 -86 5450 -53 5378 -53 ct 5334 -53 5296 -66 5275 -88 ct 5262 -103 5256 -117 5252 -154 ct 
5165 -154 l  5169 -34 5236 23 5371 23 ct 5502 23 5584 -41 5584 -141 ct 5584 -218 5541 -261 5438 -286 ct 
5359 -305 l  5292 -320 5263 -342 5263 -379 ct 5263 -426 5306 -457 5373 -457 ct 
5439 -457 5475 -428 5477 -374 ct 5564 -374 l  p ef
pom
pum
20372 21073 t
487 -330 m  488 -294 476 -247 456 -212 ct 325 -374 l  428 -432 461 -474 461 -546 ct 
461 -637 394 -701 300 -701 ct 206 -701 131 -633 131 -546 ct 131 -499 150 -462 211 -384 ct 
89 -313 51 -264 51 -174 ct 51 -55 132 23 254 23 ct 302 23 349 10 384 -13 ct 405 -25 423 -40 460 -77 ct 
522 0 l  629 0 l  509 -149 l  545 -205 566 -271 566 -330 ct 487 -330 l  p
282 -426 m  221 -495 212 -512 212 -547 ct 212 -598 246 -632 297 -632 ct 347 -632 383 -596 383 -548 ct 
383 -503 359 -474 282 -426 ct p
413 -135 m  358 -77 315 -54 264 -54 ct 193 -54 134 -112 134 -181 ct 134 -236 165 -276 255 -333 ct 
413 -135 l  p ef
pom
pum
17950 22301 t
181 -328 m  573 -328 l  573 -409 l  181 -409 l  181 -640 l  588 -640 l 
588 -721 l  89 -721 l  89 0 l  606 0 l  606 -81 l  181 -81 l  181 -328 l 
p ef
1145 -721 m  1063 -721 l  1063 -453 l  1028 -505 973 -533 904 -533 ct 770 -533 682 -425 682 -260 ct 
682 -85 768 23 907 23 ct 978 23 1027 -4 1072 -68 ct 1072 0 l  1145 0 l  1145 -721 l 
p
918 -456 m  1007 -456 1063 -377 1063 -253 ct 1063 -133 1006 -54 919 -54 ct 828 -54 768 -134 768 -255 ct 
768 -376 828 -456 918 -456 ct p ef
1355 -518 m  1273 -518 l  1273 0 l  1355 0 l  1355 -518 l  p
1355 -721 m  1272 -721 l  1272 -617 l  1355 -617 l  1355 -721 l  p ef
1678 -518 m  1593 -518 l  1593 -661 l  1511 -661 l  1511 -518 l  1441 -518 l 
1441 -451 l  1511 -451 l  1511 -59 l  1511 -7 1547 23 1611 23 ct 1631 23 1650 21 1678 16 ct 
1678 -53 l  1667 -50 1654 -49 1638 -49 ct 1603 -49 1593 -59 1593 -96 ct 1593 -451 l 
1678 -451 l  1678 -518 l  p ef
2135 -374 m  2134 -476 2067 -533 1947 -533 ct 1826 -533 1748 -471 1748 -375 ct 
1748 -294 1790 -255 1912 -225 ct 1990 -207 l  2047 -193 2070 -172 2070 -134 ct 
2070 -86 2021 -53 1949 -53 ct 1905 -53 1867 -66 1846 -88 ct 1833 -103 1827 -117 1823 -154 ct 
1736 -154 l  1740 -34 1807 23 1942 23 ct 2073 23 2155 -41 2155 -141 ct 2155 -218 2112 -261 2009 -286 ct 
1930 -305 l  1863 -320 1834 -342 1834 -379 ct 1834 -426 1877 -457 1944 -457 ct 
2010 -457 2046 -428 2048 -374 ct 2135 -374 l  p ef
2879 -518 m  2879 -443 l  2838 -504 2787 -533 2721 -533 ct 2590 -533 2501 -418 2501 -250 ct 
2501 -165 2523 -96 2566 -46 ct 2604 -3 2660 23 2714 23 ct 2779 23 2825 -5 2871 -70 ct 
2871 -43 l  2871 27 2862 70 2842 98 ct 2820 129 2777 147 2727 147 ct 2689 147 2656 137 2633 119 ct 
2614 104 2606 90 2601 60 ct 2517 60 l  2526 158 2602 216 2724 216 ct 2801 216 2867 191 2901 150 ct 
2940 102 2955 37 2955 -85 ct 2955 -518 l  2879 -518 l  p
2730 -457 m  2819 -457 2871 -382 2871 -252 ct 2871 -128 2818 -53 2731 -53 ct 
2641 -53 2587 -129 2587 -255 ct 2587 -380 2642 -457 2730 -457 ct p ef
3091 -518 m  3091 0 l  3174 0 l  3174 -269 l  3174 -343 3193 -392 3232 -420 ct 
3258 -439 3283 -445 3340 -445 ct 3340 -530 l  3326 -532 3319 -533 3309 -533 ct 
3255 -533 3215 -501 3167 -424 ct 3167 -518 l  3091 -518 l  p ef
3882 -48 m  3873 -46 3869 -46 3864 -46 ct 3835 -46 3819 -61 3819 -87 ct 3819 -392 l 
3819 -484 3752 -533 3625 -533 ct 3550 -533 3487 -511 3453 -473 ct 3429 -446 3419 -416 3417 -365 ct 
3500 -365 l  3507 -428 3545 -457 3622 -457 ct 3696 -457 3737 -429 3737 -380 ct 
3737 -358 l  3737 -323 3717 -308 3651 -301 ct 3535 -286 3517 -282 3485 -269 ct 
3425 -244 3395 -198 3395 -130 ct 3395 -36 3460 23 3564 23 ct 3630 23 3682 0 3740 -53 ct 
3746 -1 3772 23 3825 23 ct 3842 23 3855 21 3882 14 ct 3882 -48 l  p
3737 -163 m  3737 -135 3729 -118 3705 -96 ct 3671 -65 3631 -49 3582 -49 ct 3518 -49 3480 -80 3480 -132 ct 
3480 -187 3517 -214 3605 -227 ct 3692 -239 3710 -243 3737 -256 ct 3737 -163 l 
p ef
3956 216 m  4039 216 l  4039 -54 l  4083 -1 4131 23 4198 23 ct 4332 23 4420 -85 4420 -250 ct 
4420 -424 4335 -533 4197 -533 ct 4127 -533 4071 -501 4032 -440 ct 4032 -518 l 
3956 -518 l  3956 216 l  p
4184 -456 m  4274 -456 4334 -376 4334 -252 ct 4334 -134 4274 -54 4184 -54 ct 
4097 -54 4039 -133 4039 -255 ct 4039 -377 4097 -456 4184 -456 ct p ef
4522 -721 m  4522 0 l  4604 0 l  4604 -286 l  4604 -392 4659 -461 4744 -461 ct 
4771 -461 4798 -452 4818 -437 ct 4841 -420 4851 -396 4851 -359 ct 4851 0 l  4933 0 l 
4933 -392 l  4933 -479 4871 -533 4770 -533 ct 4697 -533 4653 -510 4604 -447 ct 
4604 -721 l  4522 -721 l  p ef
5437 -374 m  5436 -476 5369 -533 5249 -533 ct 5128 -533 5050 -471 5050 -375 ct 
5050 -294 5092 -255 5214 -225 ct 5292 -207 l  5349 -193 5372 -172 5372 -134 ct 
5372 -86 5323 -53 5251 -53 ct 5207 -53 5169 -66 5148 -88 ct 5135 -103 5129 -117 5125 -154 ct 
5038 -154 l  5042 -34 5109 23 5244 23 ct 5375 23 5457 -41 5457 -141 ct 5457 -218 5414 -261 5311 -286 ct 
5232 -305 l  5165 -320 5136 -342 5136 -379 ct 5136 -426 5179 -457 5246 -457 ct 
5312 -457 5348 -428 5350 -374 ct 5437 -374 l  p ef
pom
0.003 0.003 0.003 c 12177 15487 m  12177 17130 l  8361 17130 l  8361 18772 l 
ps
12177 15487 m  12177 16144 l  20700 16144 l  20700 16800 l  ps
13279 20743 m  16407 20743 l  ps
16767 20743 m  16317 20593 l  16317 20893 l  16767 20743 l  p ef
1.000 0.800 0.601 c 32567 26000 m  28634 26000 l  28634 16800 l  36500 16800 l 
36500 26000 l  32567 26000 l  p ef
0.003 0.003 0.003 c 32567 26000 m  28634 26000 l  28634 16800 l  36500 16800 l 
36500 26000 l  32567 26000 l  pc
pum
31236 19364 t
0.082 0.078 0.074 c 116 -211 m  337 -211 l  337 -263 l  116 -263 l  116 -411 l 
367 -411 l  367 -463 l  57 -463 l  57 -1 l  116 -1 l  116 -211 l  p ef
702 -148 m  702 -199 698 -229 689 -254 ct 667 -309 617 -342 555 -342 ct 462 -342 402 -271 402 -162 ct 
402 -52 460 15 553 15 ct 629 15 682 -28 695 -100 ct 642 -100 l  627 -57 598 -34 555 -34 ct 
522 -34 493 -49 475 -77 ct 463 -96 458 -115 458 -148 ct 702 -148 l  p
459 -191 m  463 -253 501 -293 554 -293 ct 606 -293 646 -250 646 -195 ct 646 -194 646 -192 645 -191 ct 
459 -191 l  p ef
1067 -31 m  1061 -29 1059 -29 1056 -29 ct 1037 -29 1027 -39 1027 -55 ct 1027 -251 l 
1027 -310 984 -342 902 -342 ct 854 -342 814 -328 792 -303 ct 777 -286 770 -267 769 -234 ct 
822 -234 l  827 -275 851 -293 900 -293 ct 948 -293 975 -275 975 -243 ct 975 -230 l 
975 -207 961 -198 919 -193 ct 845 -183 833 -181 813 -172 ct 774 -156 755 -127 755 -83 ct 
755 -23 796 15 864 15 ct 906 15 939 0 977 -34 ct 980 0 997 15 1031 15 ct 1042 15 1050 14 1067 9 ct 
1067 -31 l  p
975 -104 m  975 -87 970 -76 954 -61 ct 932 -41 906 -31 875 -31 ct 834 -31 810 -51 810 -85 ct 
810 -120 833 -137 890 -146 ct 945 -153 957 -156 975 -164 ct 975 -104 l  p ef
1241 -332 m  1187 -332 l  1187 -424 l  1134 -424 l  1134 -332 l  1089 -332 l 
1089 -289 l  1134 -289 l  1134 -38 l  1134 -4 1157 15 1198 15 ct 1211 15 1223 14 1241 11 ct 
1241 -34 l  1234 -32 1226 -31 1216 -31 ct 1193 -31 1187 -38 1187 -61 ct 1187 -289 l 
1241 -289 l  1241 -332 l  p ef
1563 0 m  1563 -332 l  1510 -332 l  1510 -144 l  1510 -76 1474 -31 1419 -31 ct 
1377 -31 1351 -57 1351 -97 ct 1351 -332 l  1298 -332 l  1298 -76 l  1298 -21 1339 15 1404 15 ct 
1453 15 1484 -2 1515 -46 ct 1515 0 l  1563 0 l  p ef
1653 -332 m  1653 0 l  1706 0 l  1706 -173 l  1706 -220 1718 -251 1743 -270 ct 
1760 -282 1776 -286 1813 -286 ct 1813 -340 l  1804 -341 1799 -342 1792 -342 ct 
1758 -342 1732 -322 1702 -272 ct 1702 -332 l  1653 -332 l  p ef
2141 -148 m  2141 -199 2137 -229 2128 -254 ct 2106 -309 2056 -342 1994 -342 ct 
1901 -342 1841 -271 1841 -162 ct 1841 -52 1899 15 1992 15 ct 2068 15 2121 -28 2134 -100 ct 
2081 -100 l  2066 -57 2037 -34 1994 -34 ct 1961 -34 1932 -49 1914 -77 ct 1902 -96 1897 -115 1897 -148 ct 
2141 -148 l  p
1898 -191 m  1902 -253 1940 -293 1993 -293 ct 2045 -293 2085 -250 2085 -195 ct 
2085 -194 2085 -192 2084 -191 ct 1898 -191 l  p ef
2445 -240 m  2444 -305 2401 -342 2324 -342 ct 2247 -342 2197 -302 2197 -240 ct 
2197 -188 2223 -163 2302 -144 ct 2352 -132 l  2388 -123 2403 -110 2403 -86 ct 
2403 -55 2372 -34 2326 -34 ct 2297 -34 2273 -42 2260 -56 ct 2251 -66 2248 -75 2244 -99 ct 
2189 -99 l  2191 -22 2234 15 2321 15 ct 2405 15 2458 -26 2458 -90 ct 2458 -140 2430 -167 2364 -183 ct 
2313 -195 l  2270 -205 2252 -219 2252 -243 ct 2252 -273 2279 -293 2322 -293 ct 
2365 -293 2388 -275 2389 -240 ct 2445 -240 l  p ef
2621 -66 m  2555 -66 l  2555 0 l  2621 0 l  2621 -66 l  p
2621 -332 m  2555 -332 l  2555 -266 l  2621 -266 l  2621 -332 l  p ef
pom
pum
28884 19920 t
88 0 m  69 0 53 -6 42 -17 ct 30 -29 24 -45 24 -64 ct 24 -84 30 -99 42 -111 ct 53 -123 69 -128 88 -128 ct 
108 -128 123 -123 135 -111 ct 147 -99 153 -84 153 -64 ct 153 -45 147 -29 135 -17 ct 
123 -6 108 0 88 0 ct p ef
pom
pum
29057 20020 t
pom
pum
29197 20020 t
44 0 m  183 0 l  274 0 330 -68 330 -180 ct 330 -292 274 -360 183 -360 ct 44 -360 l 
44 0 l  p
90 -40 m  90 -320 l  175 -320 l  246 -320 284 -272 284 -180 ct 284 -89 246 -40 175 -40 ct 
90 -40 l  p ef
548 -366 m  445 -366 375 -290 375 -178 ct 375 -65 445 11 549 11 ct 592 11 631 -2 660 -27 ct 
699 -60 723 -116 723 -175 ct 723 -291 654 -366 548 -366 ct p
548 -326 m  626 -326 677 -266 677 -176 ct 677 -89 625 -29 549 -29 ct 472 -29 421 -89 421 -178 ct 
421 -266 472 -326 548 -326 ct p ef
899 -319 m  1017 -319 l  1017 -359 l  734 -359 l  734 -319 l  853 -319 l 
853 1 l  899 1 l  899 -319 l  p ef
2069 -190 m  1919 -190 l  1919 -150 l  2029 -150 l  2029 -140 l  2029 -76 1981 -29 1916 -29 ct 
1879 -29 1846 -43 1825 -66 ct 1801 -92 1787 -135 1787 -179 ct 1787 -267 1837 -326 1913 -326 ct 
1968 -326 2008 -297 2017 -251 ct 2064 -251 l  2051 -324 1996 -366 1914 -366 ct 
1870 -366 1834 -355 1806 -331 ct 1764 -297 1741 -241 1741 -177 ct 1741 -66 1808 11 1906 11 ct 
1955 11 1994 -7 2029 -46 ct 2040 2 l  2069 2 l  2069 -190 l  p ef
2377 -360 m  2377 -107 l  2377 -59 2342 -29 2284 -29 ct 2257 -29 2235 -36 2218 -48 ct 
2200 -62 2192 -80 2192 -107 ct 2192 -360 l  2146 -360 l  2146 -107 l  2146 -34 2198 11 2284 11 ct 
2368 11 2423 -35 2423 -107 ct 2423 -360 l  2377 -360 l  p ef
2556 -360 m  2509 -360 l  2509 0 l  2556 0 l  2556 -360 l  p ef
pom
pum
28884 20538 t
88 0 m  69 0 53 -6 42 -17 ct 30 -29 24 -45 24 -64 ct 24 -84 30 -99 42 -111 ct 53 -123 69 -128 88 -128 ct 
108 -128 123 -123 135 -111 ct 147 -99 153 -84 153 -64 ct 153 -45 147 -29 135 -17 ct 
123 -6 108 0 88 0 ct p ef
pom
pum
29057 20638 t
pom
pum
29197 20638 t
350 -190 m  200 -190 l  200 -150 l  310 -150 l  310 -140 l  310 -76 262 -29 197 -29 ct 
160 -29 127 -43 106 -66 ct 82 -92 68 -135 68 -179 ct 68 -267 118 -326 194 -326 ct 
249 -326 289 -297 298 -251 ct 345 -251 l  332 -324 277 -366 195 -366 ct 151 -366 115 -355 87 -331 ct 
45 -297 22 -241 22 -177 ct 22 -66 89 11 187 11 ct 236 11 275 -7 310 -46 ct 321 2 l 
350 2 l  350 -190 l  p ef
658 -360 m  658 -107 l  658 -59 623 -29 565 -29 ct 538 -29 516 -36 499 -48 ct 
481 -62 473 -80 473 -107 ct 473 -360 l  427 -360 l  427 -107 l  427 -34 479 11 565 11 ct 
649 11 704 -35 704 -107 ct 704 -360 l  658 -360 l  p ef
837 -360 m  790 -360 l  790 0 l  837 0 l  837 -360 l  p ef
1047 -360 m  1047 0 l  1084 0 l  1084 -33 l  1103 -3 1130 11 1166 11 ct 1234 11 1278 -45 1278 -131 ct 
1278 -215 1236 -267 1168 -267 ct 1132 -267 1107 -253 1088 -224 ct 1088 -360 l 
1047 -360 l  p
1160 -228 m  1206 -228 1235 -188 1235 -126 ct 1235 -67 1205 -27 1160 -27 ct 
1116 -27 1088 -67 1088 -128 ct 1088 -189 1116 -228 1160 -228 ct p ef
1559 -25 m  1555 -24 1553 -24 1550 -24 ct 1536 -24 1528 -31 1528 -44 ct 1528 -196 l 
1528 -241 1495 -266 1431 -266 ct 1393 -266 1362 -255 1345 -236 ct 1333 -223 1328 -208 1327 -182 ct 
1369 -182 l  1372 -214 1391 -228 1429 -228 ct 1466 -228 1487 -214 1487 -190 ct 
1487 -179 l  1487 -161 1477 -154 1444 -150 ct 1386 -143 1377 -141 1361 -134 ct 
1331 -122 1316 -99 1316 -65 ct 1316 -19 1348 11 1401 11 ct 1433 11 1460 0 1489 -27 ct 
1492 -1 1504 11 1531 11 ct 1540 11 1546 10 1559 7 ct 1559 -25 l  p
1487 -82 m  1487 -68 1483 -60 1471 -48 ct 1454 -33 1434 -25 1410 -25 ct 1378 -25 1359 -40 1359 -66 ct 
1359 -94 1377 -107 1421 -114 ct 1464 -120 1473 -122 1487 -128 ct 1487 -82 l 
p ef
1787 -187 m  1787 -237 1753 -266 1694 -266 ct 1633 -266 1594 -235 1594 -187 ct 
1594 -147 1615 -128 1676 -113 ct 1715 -103 l  1743 -96 1755 -86 1755 -67 ct 
1755 -43 1731 -27 1695 -27 ct 1672 -27 1654 -33 1643 -44 ct 1637 -52 1634 -59 1631 -77 ct 
1588 -77 l  1590 -18 1623 11 1691 11 ct 1756 11 1798 -21 1798 -71 ct 1798 -109 1776 -130 1725 -143 ct 
1685 -152 l  1652 -160 1637 -171 1637 -189 ct 1637 -213 1658 -228 1692 -228 ct 
1725 -228 1743 -214 1744 -187 ct 1787 -187 l  p ef
2073 -116 m  2073 -155 2070 -179 2063 -198 ct 2046 -240 2007 -266 1958 -266 ct 
1886 -266 1840 -211 1840 -126 ct 1840 -41 1885 11 1957 11 ct 2017 11 2058 -23 2068 -79 ct 
2026 -79 l  2015 -45 1992 -27 1959 -27 ct 1933 -27 1910 -39 1897 -61 ct 1887 -75 1883 -90 1883 -116 ct 
2073 -116 l  p
1884 -150 m  1887 -197 1916 -228 1958 -228 ct 1998 -228 2029 -195 2029 -153 ct 
2029 -152 2029 -151 2029 -150 ct 1884 -150 l  p ef
2341 -360 m  2300 -360 l  2300 -227 l  2282 -253 2255 -267 2220 -267 ct 2153 -267 2109 -213 2109 -130 ct 
2109 -43 2152 11 2221 11 ct 2257 11 2282 -2 2304 -34 ct 2304 0 l  2341 0 l  2341 -360 l 
p
2227 -228 m  2271 -228 2300 -189 2300 -127 ct 2300 -67 2271 -27 2227 -27 ct 
2182 -27 2152 -67 2152 -128 ct 2152 -188 2182 -228 2227 -228 ct p ef
2763 -116 m  2763 -155 2760 -179 2753 -198 ct 2736 -240 2697 -266 2648 -266 ct 
2576 -266 2530 -211 2530 -126 ct 2530 -41 2575 11 2647 11 ct 2707 11 2748 -23 2758 -79 ct 
2716 -79 l  2705 -45 2682 -27 2649 -27 ct 2623 -27 2600 -39 2587 -61 ct 2577 -75 2573 -90 2573 -116 ct 
2763 -116 l  p
2574 -150 m  2577 -197 2606 -228 2648 -228 ct 2688 -228 2719 -195 2719 -153 ct 
2719 -152 2719 -151 2719 -150 ct 2574 -150 l  p ef
3031 -360 m  2990 -360 l  2990 -227 l  2972 -253 2945 -267 2910 -267 ct 2843 -267 2799 -213 2799 -130 ct 
2799 -43 2842 11 2911 11 ct 2947 11 2972 -2 2994 -34 ct 2994 0 l  3031 0 l  3031 -360 l 
p
2917 -228 m  2961 -228 2990 -189 2990 -127 ct 2990 -67 2961 -27 2917 -27 ct 
2872 -27 2842 -67 2842 -128 ct 2842 -188 2872 -228 2917 -228 ct p ef
3135 -259 m  3094 -259 l  3094 0 l  3135 0 l  3135 -259 l  p
3135 -360 m  3094 -360 l  3094 -308 l  3135 -308 l  3135 -360 l  p ef
3296 -259 m  3254 -259 l  3254 -330 l  3213 -330 l  3213 -259 l  3178 -259 l 
3178 -225 l  3213 -225 l  3213 -30 l  3213 -4 3231 11 3263 11 ct 3273 11 3283 10 3296 8 ct 
3296 -27 l  3291 -26 3285 -25 3277 -25 ct 3259 -25 3254 -30 3254 -48 ct 3254 -225 l 
3296 -225 l  3296 -259 l  p ef
pom
pum
28884 21156 t
88 0 m  69 0 53 -6 42 -17 ct 30 -29 24 -45 24 -64 ct 24 -84 30 -99 42 -111 ct 53 -123 69 -128 88 -128 ct 
108 -128 123 -123 135 -111 ct 147 -99 153 -84 153 -64 ct 153 -45 147 -29 135 -17 ct 
123 -6 108 0 88 0 ct p ef
pom
pum
29057 21256 t
pom
pum
29197 21256 t
350 -190 m  200 -190 l  200 -150 l  310 -150 l  310 -140 l  310 -76 262 -29 197 -29 ct 
160 -29 127 -43 106 -66 ct 82 -92 68 -135 68 -179 ct 68 -267 118 -326 194 -326 ct 
249 -326 289 -297 298 -251 ct 345 -251 l  332 -324 277 -366 195 -366 ct 151 -366 115 -355 87 -331 ct 
45 -297 22 -241 22 -177 ct 22 -66 89 11 187 11 ct 236 11 275 -7 310 -46 ct 321 2 l 
350 2 l  350 -190 l  p ef
658 -360 m  658 -107 l  658 -59 623 -29 565 -29 ct 538 -29 516 -36 499 -48 ct 
481 -62 473 -80 473 -107 ct 473 -360 l  427 -360 l  427 -107 l  427 -34 479 11 565 11 ct 
649 11 704 -35 704 -107 ct 704 -360 l  658 -360 l  p ef
837 -360 m  790 -360 l  790 0 l  837 0 l  837 -360 l  p ef
1619 0 m  1758 0 l  1849 0 1905 -68 1905 -180 ct 1905 -292 1849 -360 1758 -360 ct 
1619 -360 l  1619 0 l  p
1665 -40 m  1665 -320 l  1750 -320 l  1821 -320 1859 -272 1859 -180 ct 1859 -89 1821 -40 1750 -40 ct 
1665 -40 l  p ef
2122 -366 m  2019 -366 1949 -290 1949 -178 ct 1949 -65 2019 11 2123 11 ct 2166 11 2205 -2 2234 -27 ct 
2273 -60 2297 -116 2297 -175 ct 2297 -291 2228 -366 2122 -366 ct p
2122 -326 m  2200 -326 2251 -266 2251 -176 ct 2251 -89 2199 -29 2123 -29 ct 
2046 -29 1995 -89 1995 -178 ct 1995 -266 2046 -326 2122 -326 ct p ef
2474 -319 m  2592 -319 l  2592 -359 l  2309 -359 l  2309 -319 l  2428 -319 l 
2428 1 l  2474 1 l  2474 -319 l  p ef
pom
pum
29923 22623 t
116 -211 m  368 -211 l  368 -263 l  116 -263 l  116 -411 l  377 -411 l 
377 -463 l  57 -463 l  57 0 l  389 0 l  389 -52 l  116 -52 l  116 -211 l 
p ef
608 -172 m  720 -332 l  660 -332 l  580 -212 l  500 -332 l  440 -332 l 
551 -169 l  434 0 l  494 0 l  578 -128 l  661 0 l  723 0 l  608 -172 l 
p ef
902 -332 m  848 -332 l  848 -424 l  795 -424 l  795 -332 l  750 -332 l 
750 -289 l  795 -289 l  795 -38 l  795 -4 818 15 859 15 ct 872 15 884 14 902 11 ct 
902 -34 l  895 -32 887 -31 877 -31 ct 854 -31 848 -38 848 -61 ct 848 -289 l 
902 -289 l  902 -332 l  p ef
1239 -148 m  1239 -199 1235 -229 1226 -254 ct 1204 -309 1154 -342 1092 -342 ct 
999 -342 939 -271 939 -162 ct 939 -52 997 15 1090 15 ct 1166 15 1219 -28 1232 -100 ct 
1179 -100 l  1164 -57 1135 -34 1092 -34 ct 1059 -34 1030 -49 1012 -77 ct 1000 -96 995 -115 995 -148 ct 
1239 -148 l  p
996 -191 m  1000 -253 1038 -293 1091 -293 ct 1143 -293 1183 -250 1183 -195 ct 
1183 -194 1183 -192 1182 -191 ct 996 -191 l  p ef
1310 -332 m  1310 0 l  1364 0 l  1364 -183 l  1364 -251 1399 -296 1454 -296 ct 
1496 -296 1522 -270 1522 -230 ct 1522 0 l  1575 0 l  1575 -251 l  1575 -306 1534 -342 1470 -342 ct 
1420 -342 1388 -323 1359 -277 ct 1359 -332 l  1310 -332 l  p ef
1931 -462 m  1878 -462 l  1878 -290 l  1856 -324 1821 -341 1776 -341 ct 1690 -341 1633 -272 1633 -166 ct 
1633 -54 1689 15 1778 15 ct 1824 15 1855 -2 1884 -43 ct 1884 1 l  1931 1 l  1931 -462 l 
p
1785 -292 m  1842 -292 1878 -241 1878 -162 ct 1878 -85 1841 -35 1786 -35 ct 
1727 -35 1689 -86 1689 -163 ct 1689 -241 1727 -292 1785 -292 ct p ef
2294 -148 m  2294 -199 2290 -229 2281 -254 ct 2259 -309 2209 -342 2147 -342 ct 
2054 -342 1994 -271 1994 -162 ct 1994 -52 2052 15 2145 15 ct 2221 15 2274 -28 2287 -100 ct 
2234 -100 l  2219 -57 2190 -34 2147 -34 ct 2114 -34 2085 -49 2067 -77 ct 2055 -96 2050 -115 2050 -148 ct 
2294 -148 l  p
2051 -191 m  2055 -253 2093 -293 2146 -293 ct 2198 -293 2238 -250 2238 -195 ct 
2238 -194 2238 -192 2237 -191 ct 2051 -191 l  p ef
2634 -462 m  2581 -462 l  2581 -290 l  2559 -324 2524 -341 2479 -341 ct 2393 -341 2336 -272 2336 -166 ct 
2336 -54 2392 15 2481 15 ct 2527 15 2558 -2 2587 -43 ct 2587 1 l  2634 1 l  2634 -462 l 
p
2488 -292 m  2545 -292 2581 -241 2581 -162 ct 2581 -85 2544 -35 2489 -35 ct 
2430 -35 2392 -86 2392 -163 ct 2392 -241 2430 -292 2488 -292 ct p ef
2965 -211 m  3186 -211 l  3186 -263 l  2965 -263 l  2965 -411 l  3216 -411 l 
3216 -463 l  2906 -463 l  2906 -1 l  2965 -1 l  2965 -211 l  p ef
3551 -148 m  3551 -199 3547 -229 3538 -254 ct 3516 -309 3466 -342 3404 -342 ct 
3311 -342 3251 -271 3251 -162 ct 3251 -52 3309 15 3402 15 ct 3478 15 3531 -28 3544 -100 ct 
3491 -100 l  3476 -57 3447 -34 3404 -34 ct 3371 -34 3342 -49 3324 -77 ct 3312 -96 3307 -115 3307 -148 ct 
3551 -148 l  p
3308 -191 m  3312 -253 3350 -293 3403 -293 ct 3455 -293 3495 -250 3495 -195 ct 
3495 -194 3495 -192 3494 -191 ct 3308 -191 l  p ef
3916 -31 m  3910 -29 3908 -29 3905 -29 ct 3886 -29 3876 -39 3876 -55 ct 3876 -251 l 
3876 -310 3833 -342 3751 -342 ct 3703 -342 3663 -328 3641 -303 ct 3626 -286 3619 -267 3618 -234 ct 
3671 -234 l  3676 -275 3700 -293 3749 -293 ct 3797 -293 3824 -275 3824 -243 ct 
3824 -230 l  3824 -207 3810 -198 3768 -193 ct 3694 -183 3682 -181 3662 -172 ct 
3623 -156 3604 -127 3604 -83 ct 3604 -23 3645 15 3713 15 ct 3755 15 3788 0 3826 -34 ct 
3829 0 3846 15 3880 15 ct 3891 15 3899 14 3916 9 ct 3916 -31 l  p
3824 -104 m  3824 -87 3819 -76 3803 -61 ct 3781 -41 3755 -31 3724 -31 ct 3683 -31 3659 -51 3659 -85 ct 
3659 -120 3682 -137 3739 -146 ct 3794 -153 3806 -156 3824 -164 ct 3824 -104 l 
p ef
4090 -332 m  4036 -332 l  4036 -424 l  3983 -424 l  3983 -332 l  3938 -332 l 
3938 -289 l  3983 -289 l  3983 -38 l  3983 -4 4006 15 4047 15 ct 4060 15 4072 14 4090 11 ct 
4090 -34 l  4083 -32 4075 -31 4065 -31 ct 4042 -31 4036 -38 4036 -61 ct 4036 -289 l 
4090 -289 l  4090 -332 l  p ef
4412 0 m  4412 -332 l  4359 -332 l  4359 -144 l  4359 -76 4323 -31 4268 -31 ct 
4226 -31 4200 -57 4200 -97 ct 4200 -332 l  4147 -332 l  4147 -76 l  4147 -21 4188 15 4253 15 ct 
4302 15 4333 -2 4364 -46 ct 4364 0 l  4412 0 l  p ef
4502 -332 m  4502 0 l  4555 0 l  4555 -173 l  4555 -220 4567 -251 4592 -270 ct 
4609 -282 4625 -286 4662 -286 ct 4662 -340 l  4653 -341 4648 -342 4641 -342 ct 
4607 -342 4581 -322 4551 -272 ct 4551 -332 l  4502 -332 l  p ef
4990 -148 m  4990 -199 4986 -229 4977 -254 ct 4955 -309 4905 -342 4843 -342 ct 
4750 -342 4690 -271 4690 -162 ct 4690 -52 4748 15 4841 15 ct 4917 15 4970 -28 4983 -100 ct 
4930 -100 l  4915 -57 4886 -34 4843 -34 ct 4810 -34 4781 -49 4763 -77 ct 4751 -96 4746 -115 4746 -148 ct 
4990 -148 l  p
4747 -191 m  4751 -253 4789 -293 4842 -293 ct 4894 -293 4934 -250 4934 -195 ct 
4934 -194 4934 -192 4933 -191 ct 4747 -191 l  p ef
5295 -240 m  5294 -305 5251 -342 5174 -342 ct 5097 -342 5047 -302 5047 -240 ct 
5047 -188 5073 -163 5152 -144 ct 5202 -132 l  5238 -123 5253 -110 5253 -86 ct 
5253 -55 5222 -34 5176 -34 ct 5147 -34 5123 -42 5110 -56 ct 5101 -66 5098 -75 5094 -99 ct 
5039 -99 l  5041 -22 5084 15 5171 15 ct 5255 15 5308 -26 5308 -90 ct 5308 -140 5280 -167 5214 -183 ct 
5163 -195 l  5120 -205 5102 -219 5102 -243 ct 5102 -273 5129 -293 5172 -293 ct 
5215 -293 5238 -275 5239 -240 ct 5295 -240 l  p ef
5470 -66 m  5404 -66 l  5404 0 l  5470 0 l  5470 -66 l  p
5470 -332 m  5404 -332 l  5404 -266 l  5470 -266 l  5470 -332 l  p ef
pom
pum
28884 23179 t
88 0 m  69 0 53 -6 42 -17 ct 30 -29 24 -45 24 -64 ct 24 -84 30 -99 42 -111 ct 53 -123 69 -128 88 -128 ct 
108 -128 123 -123 135 -111 ct 147 -99 153 -84 153 -64 ct 153 -45 147 -29 135 -17 ct 
123 -6 108 0 88 0 ct p ef
pom
pum
29057 23279 t
pom
pum
29197 23279 t
327 -249 m  313 -328 267 -366 188 -366 ct 140 -366 101 -351 74 -321 ct 42 -286 24 -234 24 -176 ct 
24 -117 42 -66 76 -31 ct 104 -2 139 11 186 11 ct 274 11 324 -36 334 -132 ct 287 -132 l 
283 -107 278 -90 271 -76 ct 256 -46 225 -29 187 -29 ct 115 -29 70 -87 70 -177 ct 
70 -269 113 -326 183 -326 ct 212 -326 239 -317 254 -303 ct 267 -291 275 -275 280 -249 ct 
327 -249 l  p ef
490 -266 m  418 -266 374 -214 374 -128 ct 374 -41 417 11 491 11 ct 563 11 608 -41 608 -126 ct 
608 -215 565 -266 490 -266 ct p
491 -228 m  537 -228 565 -190 565 -126 ct 565 -65 536 -27 491 -27 ct 445 -27 417 -65 417 -128 ct 
417 -190 445 -228 491 -228 ct p ef
706 -360 m  665 -360 l  665 0 l  706 0 l  706 -360 l  p ef
875 -266 m  803 -266 759 -214 759 -128 ct 759 -41 802 11 876 11 ct 948 11 993 -41 993 -126 ct 
993 -215 950 -266 875 -266 ct p
876 -228 m  922 -228 950 -190 950 -126 ct 950 -65 921 -27 876 -27 ct 830 -27 802 -65 802 -128 ct 
802 -190 830 -228 876 -228 ct p ef
1254 0 m  1254 -259 l  1213 -259 l  1213 -112 l  1213 -60 1185 -25 1142 -25 ct 
1110 -25 1089 -45 1089 -76 ct 1089 -259 l  1048 -259 l  1048 -60 l  1048 -17 1080 11 1131 11 ct 
1169 11 1193 -2 1217 -36 ct 1217 0 l  1254 0 l  p ef
1325 -259 m  1325 0 l  1367 0 l  1367 -134 l  1367 -171 1376 -195 1396 -210 ct 
1409 -219 1421 -222 1450 -222 ct 1450 -265 l  1443 -266 1439 -266 1434 -266 ct 
1407 -266 1387 -250 1363 -212 ct 1363 -259 l  1325 -259 l  p ef
1709 -116 m  1709 -155 1706 -179 1699 -198 ct 1682 -240 1643 -266 1594 -266 ct 
1522 -266 1476 -211 1476 -126 ct 1476 -41 1521 11 1593 11 ct 1653 11 1694 -23 1704 -79 ct 
1662 -79 l  1651 -45 1628 -27 1595 -27 ct 1569 -27 1546 -39 1533 -61 ct 1523 -75 1519 -90 1519 -116 ct 
1709 -116 l  p
1520 -150 m  1523 -197 1552 -228 1594 -228 ct 1634 -228 1665 -195 1665 -153 ct 
1665 -152 1665 -151 1665 -150 ct 1520 -150 l  p ef
1976 -360 m  1935 -360 l  1935 -227 l  1917 -253 1890 -267 1855 -267 ct 1788 -267 1744 -213 1744 -130 ct 
1744 -43 1787 11 1856 11 ct 1892 11 1917 -2 1939 -34 ct 1939 0 l  1976 0 l  1976 -360 l 
p
1862 -228 m  1906 -228 1935 -189 1935 -127 ct 1935 -67 1906 -27 1862 -27 ct 
1817 -27 1787 -67 1787 -128 ct 1787 -188 1817 -228 1862 -228 ct p ef
2440 -254 m  2440 -325 2392 -366 2309 -366 ct 2229 -366 2181 -326 2181 -260 ct 
2181 -216 2204 -189 2251 -177 ct 2341 -153 l  2386 -141 2407 -123 2407 -95 ct 
2407 -75 2396 -56 2381 -45 ct 2367 -35 2344 -29 2315 -29 ct 2276 -29 2249 -39 2232 -60 ct 
2219 -75 2213 -93 2213 -115 ct 2170 -115 l  2170 -82 2177 -60 2191 -40 ct 2216 -7 2257 11 2312 11 ct 
2355 11 2390 1 2413 -17 ct 2437 -36 2453 -68 2453 -99 ct 2453 -143 2425 -176 2376 -189 ct 
2286 -214 l  2242 -225 2227 -239 2227 -267 ct 2227 -303 2259 -328 2307 -328 ct 
2364 -328 2396 -301 2397 -254 ct 2440 -254 l  p ef
2602 -259 m  2560 -259 l  2560 -330 l  2519 -330 l  2519 -259 l  2484 -259 l 
2484 -225 l  2519 -225 l  2519 -30 l  2519 -4 2537 11 2569 11 ct 2579 11 2589 10 2602 8 ct 
2602 -27 l  2597 -26 2591 -25 2583 -25 ct 2565 -25 2560 -30 2560 -48 ct 2560 -225 l 
2602 -225 l  2602 -259 l  p ef
2880 -25 m  2876 -24 2874 -24 2871 -24 ct 2857 -24 2849 -31 2849 -44 ct 2849 -196 l 
2849 -241 2816 -266 2752 -266 ct 2714 -266 2683 -255 2666 -236 ct 2654 -223 2649 -208 2648 -182 ct 
2690 -182 l  2693 -214 2712 -228 2750 -228 ct 2787 -228 2808 -214 2808 -190 ct 
2808 -179 l  2808 -161 2798 -154 2765 -150 ct 2707 -143 2698 -141 2682 -134 ct 
2652 -122 2637 -99 2637 -65 ct 2637 -19 2669 11 2722 11 ct 2754 11 2781 0 2810 -27 ct 
2813 -1 2825 11 2852 11 ct 2861 11 2867 10 2880 7 ct 2880 -25 l  p
2808 -82 m  2808 -68 2804 -60 2792 -48 ct 2775 -33 2755 -25 2731 -25 ct 2699 -25 2680 -40 2680 -66 ct 
2680 -94 2698 -107 2742 -114 ct 2785 -120 2794 -122 2808 -128 ct 2808 -82 l 
p ef
3016 -259 m  2974 -259 l  2974 -330 l  2933 -330 l  2933 -259 l  2898 -259 l 
2898 -225 l  2933 -225 l  2933 -30 l  2933 -4 2951 11 2983 11 ct 2993 11 3003 10 3016 8 ct 
3016 -27 l  3011 -26 3005 -25 2997 -25 ct 2979 -25 2974 -30 2974 -48 ct 2974 -225 l 
3016 -225 l  3016 -259 l  p ef
3280 -116 m  3280 -155 3277 -179 3270 -198 ct 3253 -240 3214 -266 3165 -266 ct 
3093 -266 3047 -211 3047 -126 ct 3047 -41 3092 11 3164 11 ct 3224 11 3265 -23 3275 -79 ct 
3233 -79 l  3222 -45 3199 -27 3166 -27 ct 3140 -27 3117 -39 3104 -61 ct 3094 -75 3090 -90 3090 -116 ct 
3280 -116 l  p
3091 -150 m  3094 -197 3123 -228 3165 -228 ct 3205 -228 3236 -195 3236 -153 ct 
3236 -152 3236 -151 3236 -150 ct 3091 -150 l  p ef
3518 -187 m  3518 -237 3484 -266 3425 -266 ct 3364 -266 3325 -235 3325 -187 ct 
3325 -147 3346 -128 3407 -113 ct 3446 -103 l  3474 -96 3486 -86 3486 -67 ct 
3486 -43 3462 -27 3426 -27 ct 3403 -27 3385 -33 3374 -44 ct 3368 -52 3365 -59 3362 -77 ct 
3319 -77 l  3321 -18 3354 11 3422 11 ct 3487 11 3529 -21 3529 -71 ct 3529 -109 3507 -130 3456 -143 ct 
3416 -152 l  3383 -160 3368 -171 3368 -189 ct 3368 -213 3389 -228 3423 -228 ct 
3456 -228 3474 -214 3475 -187 ct 3518 -187 l  p ef
pom
pum
28884 23797 t
88 0 m  69 0 53 -6 42 -17 ct 30 -29 24 -45 24 -64 ct 24 -84 30 -99 42 -111 ct 53 -123 69 -128 88 -128 ct 
108 -128 123 -123 135 -111 ct 147 -99 153 -84 153 -64 ct 153 -45 147 -29 135 -17 ct 
123 -6 108 0 88 0 ct p ef
pom
pum
29057 23897 t
pom
pum
29197 23897 t
234 -108 m  271 0 l  323 0 l  196 -360 l  137 -360 l  8 0 l  57 0 l  95 -108 l 
234 -108 l  p
221 -147 m  107 -147 l  166 -310 l  221 -147 l  p ef
546 -187 m  546 -237 512 -266 453 -266 ct 392 -266 353 -235 353 -187 ct 353 -147 374 -128 435 -113 ct 
474 -103 l  502 -96 514 -86 514 -67 ct 514 -43 490 -27 454 -27 ct 431 -27 413 -33 402 -44 ct 
396 -52 393 -59 390 -77 ct 347 -77 l  349 -18 382 11 450 11 ct 515 11 557 -21 557 -71 ct 
557 -109 535 -130 484 -143 ct 444 -152 l  411 -160 396 -171 396 -189 ct 396 -213 417 -228 451 -228 ct 
484 -228 502 -214 503 -187 ct 546 -187 l  p ef
772 -258 m  700 -57 l  634 -258 l  590 -258 l  677 1 l  662 42 l  655 61 646 68 628 68 ct 
622 68 616 67 607 65 ct 607 102 l  615 106 623 108 634 108 ct 648 108 662 104 673 96 ct 
686 86 693 75 701 55 ct 816 -258 l  772 -258 l  p ef
865 -259 m  865 0 l  906 0 l  906 -143 l  906 -195 934 -230 976 -230 ct 1009 -230 1030 -210 1030 -179 ct 
1030 0 l  1071 0 l  1071 -195 l  1071 -238 1038 -266 989 -266 ct 950 -266 925 -251 903 -215 ct 
903 -259 l  865 -259 l  p ef
1338 -172 m  1336 -197 1330 -213 1320 -228 ct 1303 -252 1271 -266 1235 -266 ct 
1166 -266 1120 -211 1120 -125 ct 1120 -42 1165 11 1235 11 ct 1297 11 1336 -26 1341 -89 ct 
1299 -89 l  1292 -48 1271 -27 1236 -27 ct 1190 -27 1163 -64 1163 -125 ct 1163 -190 1190 -228 1235 -228 ct 
1270 -228 1291 -208 1296 -172 ct 1338 -172 l  p ef
1468 -360 m  1351 10 l  1378 10 l  1495 -360 l  1468 -360 l  p ef
1788 -254 m  1788 -325 1740 -366 1657 -366 ct 1577 -366 1529 -326 1529 -260 ct 
1529 -216 1552 -189 1599 -177 ct 1689 -153 l  1734 -141 1755 -123 1755 -95 ct 
1755 -75 1744 -56 1729 -45 ct 1715 -35 1692 -29 1663 -29 ct 1624 -29 1597 -39 1580 -60 ct 
1567 -75 1561 -93 1561 -115 ct 1518 -115 l  1518 -82 1525 -60 1539 -40 ct 1564 -7 1605 11 1660 11 ct 
1703 11 1738 1 1761 -17 ct 1785 -36 1801 -68 1801 -99 ct 1801 -143 1773 -176 1724 -189 ct 
1634 -214 l  1590 -225 1575 -239 1575 -267 ct 1575 -303 1607 -328 1655 -328 ct 
1712 -328 1744 -301 1745 -254 ct 1788 -254 l  p ef
2017 -258 m  1945 -57 l  1879 -258 l  1835 -258 l  1922 1 l  1907 42 l 
1900 61 1891 68 1873 68 ct 1867 68 1861 67 1852 65 ct 1852 102 l  1860 106 1868 108 1879 108 ct 
1893 108 1907 104 1918 96 ct 1931 86 1938 75 1946 55 ct 2061 -258 l  2017 -258 l 
p ef
2109 -259 m  2109 0 l  2150 0 l  2150 -143 l  2150 -195 2178 -230 2220 -230 ct 
2253 -230 2274 -210 2274 -179 ct 2274 0 l  2315 0 l  2315 -195 l  2315 -238 2282 -266 2233 -266 ct 
2194 -266 2169 -251 2147 -215 ct 2147 -259 l  2109 -259 l  p ef
2583 -172 m  2581 -197 2575 -213 2565 -228 ct 2548 -252 2516 -266 2480 -266 ct 
2411 -266 2365 -211 2365 -125 ct 2365 -42 2410 11 2480 11 ct 2542 11 2581 -26 2586 -89 ct 
2544 -89 l  2537 -48 2516 -27 2481 -27 ct 2435 -27 2408 -64 2408 -125 ct 2408 -190 2435 -228 2480 -228 ct 
2515 -228 2536 -208 2541 -172 ct 2583 -172 l  p ef
2970 -153 m  3083 -153 l  3111 -153 3133 -161 3153 -179 ct 3174 -198 3184 -222 3184 -255 ct 
3184 -322 3144 -360 3073 -360 ct 2924 -360 l  2924 -1 l  2970 -1 l  2970 -153 l 
p
2970 -193 m  2970 -320 l  3066 -320 l  3110 -320 3136 -296 3136 -257 ct 3136 -217 3110 -193 3066 -193 ct 
2970 -193 l  p ef
3243 -259 m  3243 0 l  3285 0 l  3285 -134 l  3285 -171 3294 -195 3314 -210 ct 
3327 -219 3339 -222 3368 -222 ct 3368 -265 l  3361 -266 3357 -266 3352 -266 ct 
3325 -266 3305 -250 3281 -212 ct 3281 -259 l  3243 -259 l  p ef
3508 -266 m  3436 -266 3392 -214 3392 -128 ct 3392 -41 3435 11 3509 11 ct 3581 11 3626 -41 3626 -126 ct 
3626 -215 3583 -266 3508 -266 ct p
3509 -228 m  3555 -228 3583 -190 3583 -126 ct 3583 -65 3554 -27 3509 -27 ct 
3463 -27 3435 -65 3435 -128 ct 3435 -190 3463 -228 3509 -228 ct p ef
3894 -360 m  3853 -360 l  3853 -227 l  3835 -253 3808 -267 3773 -267 ct 3706 -267 3662 -213 3662 -130 ct 
3662 -43 3705 11 3774 11 ct 3810 11 3835 -2 3857 -34 ct 3857 0 l  3894 0 l  3894 -360 l 
p
3780 -228 m  3824 -228 3853 -189 3853 -127 ct 3853 -67 3824 -27 3780 -27 ct 
3735 -27 3705 -67 3705 -128 ct 3705 -188 3735 -228 3780 -228 ct p ef
4162 0 m  4162 -259 l  4121 -259 l  4121 -112 l  4121 -60 4093 -25 4050 -25 ct 
4018 -25 3997 -45 3997 -76 ct 3997 -259 l  3956 -259 l  3956 -60 l  3956 -17 3988 11 4039 11 ct 
4077 11 4101 -2 4125 -36 ct 4125 0 l  4162 0 l  p ef
4432 -172 m  4430 -197 4424 -213 4414 -228 ct 4397 -252 4365 -266 4329 -266 ct 
4260 -266 4214 -211 4214 -125 ct 4214 -42 4259 11 4329 11 ct 4391 11 4430 -26 4435 -89 ct 
4393 -89 l  4386 -48 4365 -27 4330 -27 ct 4284 -27 4257 -64 4257 -125 ct 4257 -190 4284 -228 4329 -228 ct 
4364 -228 4385 -208 4390 -172 ct 4432 -172 l  p ef
4574 -259 m  4532 -259 l  4532 -330 l  4491 -330 l  4491 -259 l  4456 -259 l 
4456 -225 l  4491 -225 l  4491 -30 l  4491 -4 4509 11 4541 11 ct 4551 11 4561 10 4574 8 ct 
4574 -27 l  4569 -26 4563 -25 4555 -25 ct 4537 -25 4532 -30 4532 -48 ct 4532 -225 l 
4574 -225 l  4574 -259 l  p ef
pom
0.003 0.003 0.003 c 28634 21400 m  26784 21400 l  26784 25488 l  20700 25488 l 
20700 25047 l  ps
20700 24687 m  20550 25137 l  20850 25137 l  20700 24687 l  p ef
24634 20743 m  25435 20743 l  32083 10073 l  32083 9932 l  ps
32083 9572 m  31933 10022 l  32233 10022 l  32083 9572 l  p ef
0.601 0.800 1.000 c 29017 15499 m  28034 15499 l  28034 14842 l  30000 14842 l 
30000 15499 l  29017 15499 l  p ef
0.003 0.003 0.003 c 29017 15499 m  28034 15499 l  28034 14842 l  30000 14842 l 
30000 15499 l  29017 15499 l  pc
pum
28537 15312 t
0.082 0.078 0.074 c 252 -217 m  252 -278 210 -313 139 -313 ct 71 -313 30 -278 30 -223 ct 
30 -185 49 -161 90 -151 ct 167 -130 l  206 -120 223 -105 223 -81 ct 223 -64 214 -47 201 -38 ct 
189 -29 170 -25 145 -25 ct 111 -25 88 -33 74 -50 ct 62 -64 57 -79 58 -98 ct 20 -98 l 
21 -70 26 -51 39 -34 ct 60 -5 95 10 142 10 ct 179 10 209 2 229 -14 ct 250 -30 263 -58 263 -84 ct 
263 -122 239 -150 197 -162 ct 120 -182 l  82 -193 69 -204 69 -228 ct 69 -259 96 -280 138 -280 ct 
187 -280 214 -258 215 -217 ct 252 -217 l  p ef
510 -20 m  507 -20 505 -20 503 -20 ct 490 -20 484 -26 484 -37 ct 484 -167 l 
484 -206 455 -228 400 -228 ct 368 -228 342 -218 327 -202 ct 317 -190 312 -178 312 -156 ct 
347 -156 l  350 -183 366 -195 399 -195 ct 431 -195 449 -183 449 -162 ct 449 -153 l 
449 -138 440 -132 412 -128 ct 362 -122 354 -120 341 -115 ct 315 -104 302 -84 302 -56 ct 
302 -15 330 10 375 10 ct 402 10 425 0 450 -23 ct 452 0 463 10 486 10 ct 493 10 499 9 510 6 ct 
510 -20 l  p
449 -69 m  449 -58 445 -50 435 -41 ct 420 -28 403 -21 382 -21 ct 355 -21 339 -34 339 -56 ct 
339 -80 354 -91 392 -97 ct 429 -102 437 -104 449 -109 ct 449 -69 l  p ef
637 0 m  722 -222 l  682 -222 l  619 -42 l  560 -222 l  520 -222 l  598 0 l 
637 0 l  p ef
941 -99 m  941 -133 938 -153 932 -169 ct 918 -206 884 -228 842 -228 ct 781 -228 741 -180 741 -108 ct 
741 -35 779 10 842 10 ct 892 10 927 -19 936 -67 ct 901 -67 l  891 -38 871 -23 843 -23 ct 
820 -23 801 -33 790 -51 ct 781 -64 778 -77 778 -99 ct 941 -99 l  p
779 -128 m  782 -169 806 -195 842 -195 ct 877 -195 903 -166 903 -130 ct 903 -129 903 -129 903 -128 ct 
779 -128 l  p ef
pom
0 26461 t 
pom
count op_count sub {pop} repeat countdictstack dict_count sub {end} repeat b4_inc_state restore
%%PageTrailer
%%Trailer
%%EOF
